(kicad_pcb (version 4) (host pcbnew 4.0.2+dfsg1-stable)

  (general
    (links 73)
    (no_connects 4)
    (area 128.924999 97.924999 150.075001 124.075001)
    (thickness 1.6)
    (drawings 9)
    (tracks 376)
    (zones 0)
    (modules 27)
    (nets 25)
  )

  (page USLetter)
  (title_block
    (title "InfraRed USB communicator")
    (date 2018-09-05)
    (rev 0.2)
    (company "Vlad A.")
  )

  (layers
    (0 F.Cu signal)
    (31 B.Cu signal)
    (34 B.Paste user hide)
    (35 F.Paste user hide)
    (36 B.SilkS user hide)
    (37 F.SilkS user)
    (38 B.Mask user hide)
    (39 F.Mask user)
    (40 Dwgs.User user hide)
    (41 Cmts.User user hide)
    (44 Edge.Cuts user hide)
    (45 Margin user hide)
    (47 F.CrtYd user)
    (49 F.Fab user)
  )

  (setup
    (last_trace_width 0.25)
    (trace_clearance 0.2)
    (zone_clearance 0.3)
    (zone_45_only no)
    (trace_min 0.2)
    (segment_width 0.2)
    (edge_width 0.15)
    (via_size 0.6)
    (via_drill 0.4)
    (via_min_size 0.4)
    (via_min_drill 0.3)
    (uvia_size 0.3)
    (uvia_drill 0.1)
    (uvias_allowed no)
    (uvia_min_size 0.2)
    (uvia_min_drill 0.1)
    (pcb_text_width 0.3)
    (pcb_text_size 1.5 1.5)
    (mod_edge_width 0.15)
    (mod_text_size 1 1)
    (mod_text_width 0.15)
    (pad_size 1.7272 1.7272)
    (pad_drill 1.016)
    (pad_to_mask_clearance 0.1)
    (aux_axis_origin 0 0)
    (visible_elements FFFFFF7F)
    (pcbplotparams
      (layerselection 0x00030_80000001)
      (usegerberextensions false)
      (excludeedgelayer true)
      (linewidth 0.100000)
      (plotframeref false)
      (viasonmask false)
      (mode 1)
      (useauxorigin false)
      (hpglpennumber 1)
      (hpglpenspeed 20)
      (hpglpendiameter 15)
      (hpglpenoverlay 2)
      (psnegative false)
      (psa4output false)
      (plotreference true)
      (plotvalue true)
      (plotinvisibletext false)
      (padsonsilk false)
      (subtractmaskfromsilk false)
      (outputformat 1)
      (mirror false)
      (drillshape 1)
      (scaleselection 1)
      (outputdirectory ""))
  )

  (net 0 "")
  (net 1 +3V3)
  (net 2 GND)
  (net 3 +5V)
  (net 4 "Net-(C8-Pad1)")
  (net 5 "Net-(D1-Pad2)")
  (net 6 "Net-(D2-Pad2)")
  (net 7 "Net-(D3-Pad2)")
  (net 8 /~Reset~)
  (net 9 /Transmit)
  (net 10 /Receive)
  (net 11 /Shutdown)
  (net 12 /cpu_D-)
  (net 13 /cpu_D+)
  (net 14 /SWDIO)
  (net 15 /SWCLK)
  (net 16 /Boot0)
  (net 17 /LED_R)
  (net 18 /LED_G)
  (net 19 /con_D-)
  (net 20 /con_D+)
  (net 21 "Net-(R8-Pad2)")
  (net 22 /uart1_TX)
  (net 23 /uart1_RX)
  (net 24 /D+_pullup)

  (net_class Default "This is the default net class."
    (clearance 0.2)
    (trace_width 0.25)
    (via_dia 0.6)
    (via_drill 0.4)
    (uvia_dia 0.3)
    (uvia_drill 0.1)
    (add_net +3V3)
    (add_net +5V)
    (add_net /Boot0)
    (add_net /D+_pullup)
    (add_net /LED_G)
    (add_net /LED_R)
    (add_net /Receive)
    (add_net /SWCLK)
    (add_net /SWDIO)
    (add_net /Shutdown)
    (add_net /Transmit)
    (add_net /con_D+)
    (add_net /con_D-)
    (add_net /cpu_D+)
    (add_net /cpu_D-)
    (add_net /uart1_RX)
    (add_net /uart1_TX)
    (add_net /~Reset~)
    (add_net GND)
    (add_net "Net-(C8-Pad1)")
    (add_net "Net-(D1-Pad2)")
    (add_net "Net-(D2-Pad2)")
    (add_net "Net-(D3-Pad2)")
    (add_net "Net-(R8-Pad2)")
  )

  (module SWD_SMD (layer F.Cu) (tedit 5A67FB09) (tstamp 5AE6954C)
    (at 146.7 115.1 90)
    (descr "Double rangee de contacts 2 x 5 pins")
    (tags CONN)
    (path /5AC05AB1)
    (fp_text reference P1 (at 0.635 -3.81 90) (layer F.Fab)
      (effects (font (size 0.75 0.75) (thickness 0.15)))
    )
    (fp_text value CONN_02X05 (at 0 -3.81 90) (layer F.SilkS) hide
      (effects (font (size 0.75 0.75) (thickness 0.15)))
    )
    (fp_circle (center -4.5 0) (end -4.246 0) (layer F.SilkS) (width 0.15))
    (pad 1 smd rect (at -2.54 2 90) (size 0.75 2.4) (layers F.Cu F.Mask)
      (net 1 +3V3))
    (pad 2 smd rect (at -2.54 -2 90) (size 0.75 2.4) (layers F.Cu F.Mask)
      (net 14 /SWDIO))
    (pad 3 smd rect (at -1.27 2 90) (size 0.75 2.4) (layers F.Cu F.Mask)
      (net 2 GND))
    (pad 4 smd rect (at -1.27 -2 90) (size 0.75 2.4) (layers F.Cu F.Mask)
      (net 15 /SWCLK))
    (pad 5 smd rect (at 0 2 90) (size 0.75 2.4) (layers F.Cu F.Mask)
      (net 2 GND))
    (pad 6 smd rect (at 0 -2 90) (size 0.75 2.4) (layers F.Cu F.Mask))
    (pad 7 smd rect (at 1.27 2 90) (size 0.75 2.4) (layers F.Cu F.Mask)
      (net 2 GND))
    (pad 8 smd rect (at 1.27 -2 90) (size 0.75 2.4) (layers F.Cu F.Mask))
    (pad 9 smd rect (at 2.54 2 90) (size 0.75 2.4) (layers F.Cu F.Mask)
      (net 2 GND))
    (pad 10 smd rect (at 2.54 -2 90) (size 0.75 2.4) (layers F.Cu F.Mask)
      (net 8 /~Reset~))
  )

  (module Footprints:R_0603 (layer F.Cu) (tedit 5B9057FF) (tstamp 5B905883)
    (at 137.2 114.85 90)
    (descr "Resistor SMD 0603, reflow soldering, Vishay (see dcrcw.pdf)")
    (tags "resistor 0603")
    (path /5B57D1D2)
    (attr smd)
    (fp_text reference R10 (at 0 -0.415 90) (layer F.Fab)
      (effects (font (size 0.33 0.33) (thickness 0.0825)))
    )
    (fp_text value 1K5 (at 0 0.485 90) (layer F.Fab)
      (effects (font (size 0.33 0.33) (thickness 0.0825)))
    )
    (fp_line (start -1.3 -0.8) (end 1.3 -0.8) (layer F.CrtYd) (width 0.05))
    (fp_line (start -1.3 0.8) (end 1.3 0.8) (layer F.CrtYd) (width 0.05))
    (fp_line (start -1.3 -0.8) (end -1.3 0.8) (layer F.CrtYd) (width 0.05))
    (fp_line (start 1.3 -0.8) (end 1.3 0.8) (layer F.CrtYd) (width 0.05))
    (fp_line (start 0.5 0.675) (end -0.5 0.675) (layer F.SilkS) (width 0.15))
    (fp_line (start -0.5 -0.675) (end 0.5 -0.675) (layer F.SilkS) (width 0.15))
    (pad 1 smd rect (at -0.75 0 90) (size 0.5 0.9) (layers F.Cu F.Paste F.Mask)
      (net 20 /con_D+))
    (pad 2 smd rect (at 0.75 0 90) (size 0.5 0.9) (layers F.Cu F.Paste F.Mask)
      (net 24 /D+_pullup))
    (model Resistors_SMD.3dshapes/R_0603.wrl
      (at (xyz 0 0 0))
      (scale (xyz 1 1 1))
      (rotate (xyz 0 0 0))
    )
  )

  (module Footprints:C_0603 (layer F.Cu) (tedit 599DE3DD) (tstamp 5AE694BD)
    (at 146.95 105.3)
    (descr "Capacitor SMD 0603, reflow soldering, AVX (see smccp.pdf)")
    (tags "capacitor 0603")
    (path /5AE4702B)
    (attr smd)
    (fp_text reference C1 (at 0 -0.3) (layer F.Fab)
      (effects (font (size 0.33 0.33) (thickness 0.0825)))
    )
    (fp_text value 100nF (at 0.05 0.3) (layer F.Fab)
      (effects (font (size 0.33 0.33) (thickness 0.0825)))
    )
    (fp_line (start -1.45 -0.75) (end 1.45 -0.75) (layer F.CrtYd) (width 0.05))
    (fp_line (start -1.45 0.75) (end 1.45 0.75) (layer F.CrtYd) (width 0.05))
    (fp_line (start -1.45 -0.75) (end -1.45 0.75) (layer F.CrtYd) (width 0.05))
    (fp_line (start 1.45 -0.75) (end 1.45 0.75) (layer F.CrtYd) (width 0.05))
    (fp_line (start -0.35 -0.6) (end 0.35 -0.6) (layer F.SilkS) (width 0.15))
    (fp_line (start 0.35 0.6) (end -0.35 0.6) (layer F.SilkS) (width 0.15))
    (pad 1 smd rect (at -0.75 0) (size 0.8 0.75) (layers F.Cu F.Paste F.Mask)
      (net 1 +3V3))
    (pad 2 smd rect (at 0.75 0) (size 0.8 0.75) (layers F.Cu F.Paste F.Mask)
      (net 2 GND))
    (model Capacitors_SMD.3dshapes/C_0603.wrl
      (at (xyz 0 0 0))
      (scale (xyz 1 1 1))
      (rotate (xyz 0 0 0))
    )
  )

  (module Footprints:C_0603 (layer F.Cu) (tedit 599DE3DD) (tstamp 5AE694C3)
    (at 146.83033 110.01967 225)
    (descr "Capacitor SMD 0603, reflow soldering, AVX (see smccp.pdf)")
    (tags "capacitor 0603")
    (path /5AE470AA)
    (attr smd)
    (fp_text reference C2 (at 0 -0.325 225) (layer F.Fab)
      (effects (font (size 0.33 0.33) (thickness 0.0825)))
    )
    (fp_text value 100nF (at 0 0.375 225) (layer F.Fab)
      (effects (font (size 0.33 0.33) (thickness 0.0825)))
    )
    (fp_line (start -1.45 -0.75) (end 1.45 -0.75) (layer F.CrtYd) (width 0.05))
    (fp_line (start -1.45 0.75) (end 1.45 0.75) (layer F.CrtYd) (width 0.05))
    (fp_line (start -1.45 -0.75) (end -1.45 0.75) (layer F.CrtYd) (width 0.05))
    (fp_line (start 1.45 -0.75) (end 1.45 0.75) (layer F.CrtYd) (width 0.05))
    (fp_line (start -0.35 -0.6) (end 0.35 -0.6) (layer F.SilkS) (width 0.15))
    (fp_line (start 0.35 0.6) (end -0.35 0.6) (layer F.SilkS) (width 0.15))
    (pad 1 smd rect (at -0.75 0 225) (size 0.8 0.75) (layers F.Cu F.Paste F.Mask)
      (net 1 +3V3))
    (pad 2 smd rect (at 0.75 0 225) (size 0.8 0.75) (layers F.Cu F.Paste F.Mask)
      (net 2 GND))
    (model Capacitors_SMD.3dshapes/C_0603.wrl
      (at (xyz 0 0 0))
      (scale (xyz 1 1 1))
      (rotate (xyz 0 0 0))
    )
  )

  (module Footprints:C_0603 (layer F.Cu) (tedit 599DE3DD) (tstamp 5AE694C9)
    (at 139.5 116.25 315)
    (descr "Capacitor SMD 0603, reflow soldering, AVX (see smccp.pdf)")
    (tags "capacitor 0603")
    (path /5AE4710E)
    (attr smd)
    (fp_text reference C3 (at 0 -0.325 315) (layer F.Fab)
      (effects (font (size 0.33 0.33) (thickness 0.0825)))
    )
    (fp_text value 100nF (at 0 0.375 315) (layer F.Fab)
      (effects (font (size 0.33 0.33) (thickness 0.0825)))
    )
    (fp_line (start -1.45 -0.75) (end 1.45 -0.75) (layer F.CrtYd) (width 0.05))
    (fp_line (start -1.45 0.75) (end 1.45 0.75) (layer F.CrtYd) (width 0.05))
    (fp_line (start -1.45 -0.75) (end -1.45 0.75) (layer F.CrtYd) (width 0.05))
    (fp_line (start 1.45 -0.75) (end 1.45 0.75) (layer F.CrtYd) (width 0.05))
    (fp_line (start -0.35 -0.6) (end 0.35 -0.6) (layer F.SilkS) (width 0.15))
    (fp_line (start 0.35 0.6) (end -0.35 0.6) (layer F.SilkS) (width 0.15))
    (pad 1 smd rect (at -0.75 0 315) (size 0.8 0.75) (layers F.Cu F.Paste F.Mask)
      (net 1 +3V3))
    (pad 2 smd rect (at 0.75 0 315) (size 0.8 0.75) (layers F.Cu F.Paste F.Mask)
      (net 2 GND))
    (model Capacitors_SMD.3dshapes/C_0603.wrl
      (at (xyz 0 0 0))
      (scale (xyz 1 1 1))
      (rotate (xyz 0 0 0))
    )
  )

  (module Footprints:C_0603 (layer F.Cu) (tedit 599DE3DD) (tstamp 5AE694CF)
    (at 132.66967 105.33033 45)
    (descr "Capacitor SMD 0603, reflow soldering, AVX (see smccp.pdf)")
    (tags "capacitor 0603")
    (path /5AE4715B)
    (attr smd)
    (fp_text reference C4 (at 0 -0.325 45) (layer F.Fab)
      (effects (font (size 0.33 0.33) (thickness 0.0825)))
    )
    (fp_text value 100nF (at 0.05 0.55 45) (layer F.Fab)
      (effects (font (size 0.33 0.33) (thickness 0.0825)))
    )
    (fp_line (start -1.45 -0.75) (end 1.45 -0.75) (layer F.CrtYd) (width 0.05))
    (fp_line (start -1.45 0.75) (end 1.45 0.75) (layer F.CrtYd) (width 0.05))
    (fp_line (start -1.45 -0.75) (end -1.45 0.75) (layer F.CrtYd) (width 0.05))
    (fp_line (start 1.45 -0.75) (end 1.45 0.75) (layer F.CrtYd) (width 0.05))
    (fp_line (start -0.35 -0.6) (end 0.35 -0.6) (layer F.SilkS) (width 0.15))
    (fp_line (start 0.35 0.6) (end -0.35 0.6) (layer F.SilkS) (width 0.15))
    (pad 1 smd rect (at -0.75 0 45) (size 0.8 0.75) (layers F.Cu F.Paste F.Mask)
      (net 1 +3V3))
    (pad 2 smd rect (at 0.75 0 45) (size 0.8 0.75) (layers F.Cu F.Paste F.Mask)
      (net 2 GND))
    (model Capacitors_SMD.3dshapes/C_0603.wrl
      (at (xyz 0 0 0))
      (scale (xyz 1 1 1))
      (rotate (xyz 0 0 0))
    )
  )

  (module Footprints:C_0603 (layer F.Cu) (tedit 599DE3DD) (tstamp 5AE694D5)
    (at 144.2 102.6)
    (descr "Capacitor SMD 0603, reflow soldering, AVX (see smccp.pdf)")
    (tags "capacitor 0603")
    (path /5AE471AB)
    (attr smd)
    (fp_text reference C5 (at 0 -0.325) (layer F.Fab)
      (effects (font (size 0.33 0.33) (thickness 0.0825)))
    )
    (fp_text value 100nF (at 0 0.375) (layer F.Fab)
      (effects (font (size 0.33 0.33) (thickness 0.0825)))
    )
    (fp_line (start -1.45 -0.75) (end 1.45 -0.75) (layer F.CrtYd) (width 0.05))
    (fp_line (start -1.45 0.75) (end 1.45 0.75) (layer F.CrtYd) (width 0.05))
    (fp_line (start -1.45 -0.75) (end -1.45 0.75) (layer F.CrtYd) (width 0.05))
    (fp_line (start 1.45 -0.75) (end 1.45 0.75) (layer F.CrtYd) (width 0.05))
    (fp_line (start -0.35 -0.6) (end 0.35 -0.6) (layer F.SilkS) (width 0.15))
    (fp_line (start 0.35 0.6) (end -0.35 0.6) (layer F.SilkS) (width 0.15))
    (pad 1 smd rect (at -0.75 0) (size 0.8 0.75) (layers F.Cu F.Paste F.Mask)
      (net 1 +3V3))
    (pad 2 smd rect (at 0.75 0) (size 0.8 0.75) (layers F.Cu F.Paste F.Mask)
      (net 2 GND))
    (model Capacitors_SMD.3dshapes/C_0603.wrl
      (at (xyz 0 0 0))
      (scale (xyz 1 1 1))
      (rotate (xyz 0 0 0))
    )
  )

  (module Footprints:C_0603 (layer F.Cu) (tedit 599DE3DD) (tstamp 5AE694DB)
    (at 131.25 117.1 180)
    (descr "Capacitor SMD 0603, reflow soldering, AVX (see smccp.pdf)")
    (tags "capacitor 0603")
    (path /5AE47EBB)
    (attr smd)
    (fp_text reference C6 (at 0 -0.325 180) (layer F.Fab)
      (effects (font (size 0.33 0.33) (thickness 0.0825)))
    )
    (fp_text value 10uF (at 0 0.375 360) (layer F.Fab)
      (effects (font (size 0.33 0.33) (thickness 0.0825)))
    )
    (fp_line (start -1.45 -0.75) (end 1.45 -0.75) (layer F.CrtYd) (width 0.05))
    (fp_line (start -1.45 0.75) (end 1.45 0.75) (layer F.CrtYd) (width 0.05))
    (fp_line (start -1.45 -0.75) (end -1.45 0.75) (layer F.CrtYd) (width 0.05))
    (fp_line (start 1.45 -0.75) (end 1.45 0.75) (layer F.CrtYd) (width 0.05))
    (fp_line (start -0.35 -0.6) (end 0.35 -0.6) (layer F.SilkS) (width 0.15))
    (fp_line (start 0.35 0.6) (end -0.35 0.6) (layer F.SilkS) (width 0.15))
    (pad 1 smd rect (at -0.75 0 180) (size 0.8 0.75) (layers F.Cu F.Paste F.Mask)
      (net 3 +5V))
    (pad 2 smd rect (at 0.75 0 180) (size 0.8 0.75) (layers F.Cu F.Paste F.Mask)
      (net 2 GND))
    (model Capacitors_SMD.3dshapes/C_0603.wrl
      (at (xyz 0 0 0))
      (scale (xyz 1 1 1))
      (rotate (xyz 0 0 0))
    )
  )

  (module Footprints:C_0603 (layer F.Cu) (tedit 599DE3DD) (tstamp 5AE694E1)
    (at 131.3 111.8)
    (descr "Capacitor SMD 0603, reflow soldering, AVX (see smccp.pdf)")
    (tags "capacitor 0603")
    (path /5AE47D79)
    (attr smd)
    (fp_text reference C7 (at 0 -0.325) (layer F.Fab)
      (effects (font (size 0.33 0.33) (thickness 0.0825)))
    )
    (fp_text value 10uF (at 0 0.375) (layer F.Fab)
      (effects (font (size 0.33 0.33) (thickness 0.0825)))
    )
    (fp_line (start -1.45 -0.75) (end 1.45 -0.75) (layer F.CrtYd) (width 0.05))
    (fp_line (start -1.45 0.75) (end 1.45 0.75) (layer F.CrtYd) (width 0.05))
    (fp_line (start -1.45 -0.75) (end -1.45 0.75) (layer F.CrtYd) (width 0.05))
    (fp_line (start 1.45 -0.75) (end 1.45 0.75) (layer F.CrtYd) (width 0.05))
    (fp_line (start -0.35 -0.6) (end 0.35 -0.6) (layer F.SilkS) (width 0.15))
    (fp_line (start 0.35 0.6) (end -0.35 0.6) (layer F.SilkS) (width 0.15))
    (pad 1 smd rect (at -0.75 0) (size 0.8 0.75) (layers F.Cu F.Paste F.Mask)
      (net 1 +3V3))
    (pad 2 smd rect (at 0.75 0) (size 0.8 0.75) (layers F.Cu F.Paste F.Mask)
      (net 2 GND))
    (model Capacitors_SMD.3dshapes/C_0603.wrl
      (at (xyz 0 0 0))
      (scale (xyz 1 1 1))
      (rotate (xyz 0 0 0))
    )
  )

  (module Footprints:C_0603 (layer F.Cu) (tedit 599DE3DD) (tstamp 5AE694E7)
    (at 133.7 99.6 270)
    (descr "Capacitor SMD 0603, reflow soldering, AVX (see smccp.pdf)")
    (tags "capacitor 0603")
    (path /5AC073DB)
    (attr smd)
    (fp_text reference C8 (at 0 -0.325 270) (layer F.Fab)
      (effects (font (size 0.33 0.33) (thickness 0.0825)))
    )
    (fp_text value 100nF (at 0 0.375 270) (layer F.Fab)
      (effects (font (size 0.33 0.33) (thickness 0.0825)))
    )
    (fp_line (start -1.45 -0.75) (end 1.45 -0.75) (layer F.CrtYd) (width 0.05))
    (fp_line (start -1.45 0.75) (end 1.45 0.75) (layer F.CrtYd) (width 0.05))
    (fp_line (start -1.45 -0.75) (end -1.45 0.75) (layer F.CrtYd) (width 0.05))
    (fp_line (start 1.45 -0.75) (end 1.45 0.75) (layer F.CrtYd) (width 0.05))
    (fp_line (start -0.35 -0.6) (end 0.35 -0.6) (layer F.SilkS) (width 0.15))
    (fp_line (start 0.35 0.6) (end -0.35 0.6) (layer F.SilkS) (width 0.15))
    (pad 1 smd rect (at -0.75 0 270) (size 0.8 0.75) (layers F.Cu F.Paste F.Mask)
      (net 4 "Net-(C8-Pad1)"))
    (pad 2 smd rect (at 0.75 0 270) (size 0.8 0.75) (layers F.Cu F.Paste F.Mask)
      (net 2 GND))
    (model Capacitors_SMD.3dshapes/C_0603.wrl
      (at (xyz 0 0 0))
      (scale (xyz 1 1 1))
      (rotate (xyz 0 0 0))
    )
  )

  (module Footprints:LED_0603 (layer F.Cu) (tedit 59C2BCEE) (tstamp 5AE694ED)
    (at 146.7 99.4)
    (descr "LED 0603 smd package")
    (tags "LED led 0603 SMD smd SMT smt smdled SMDLED smtled SMTLED")
    (path /5AE54AEF)
    (attr smd)
    (fp_text reference D1 (at -0.02 -0.45) (layer F.Fab)
      (effects (font (size 0.33 0.33) (thickness 0.0825)))
    )
    (fp_text value Red (at 0 0.32) (layer F.Fab)
      (effects (font (size 0.33 0.33) (thickness 0.0825)))
    )
    (fp_line (start -1.1 0.55) (end 0.8 0.55) (layer F.SilkS) (width 0.15))
    (fp_line (start -1.1 -0.55) (end 0.8 -0.55) (layer F.SilkS) (width 0.15))
    (fp_line (start -0.29 -0.55) (end -0.29 0.55) (layer F.SilkS) (width 0.15))
    (fp_line (start 1.4 -0.75) (end 1.4 0.75) (layer F.CrtYd) (width 0.05))
    (fp_line (start 1.4 0.75) (end -1.4 0.75) (layer F.CrtYd) (width 0.05))
    (fp_line (start -1.4 0.75) (end -1.4 -0.75) (layer F.CrtYd) (width 0.05))
    (fp_line (start -1.4 -0.75) (end 1.4 -0.75) (layer F.CrtYd) (width 0.05))
    (pad 2 smd rect (at 0.7493 0 180) (size 0.79756 0.79756) (layers F.Cu F.Paste F.Mask)
      (net 5 "Net-(D1-Pad2)"))
    (pad 1 smd rect (at -0.7493 0 180) (size 0.79756 0.79756) (layers F.Cu F.Paste F.Mask)
      (net 2 GND))
    (model LEDs.3dshapes/LED_0603.wrl
      (at (xyz 0 0 0))
      (scale (xyz 1 1 1))
      (rotate (xyz 0 0 180))
    )
  )

  (module Footprints:LED_0603 (layer F.Cu) (tedit 59C2BCEE) (tstamp 5AE694F3)
    (at 131.3 99.4)
    (descr "LED 0603 smd package")
    (tags "LED led 0603 SMD smd SMT smt smdled SMDLED smtled SMTLED")
    (path /5AE54A86)
    (attr smd)
    (fp_text reference D2 (at -0.02 -0.45) (layer F.Fab)
      (effects (font (size 0.33 0.33) (thickness 0.0825)))
    )
    (fp_text value Green (at 0 0.32) (layer F.Fab)
      (effects (font (size 0.33 0.33) (thickness 0.0825)))
    )
    (fp_line (start -1.1 0.55) (end 0.8 0.55) (layer F.SilkS) (width 0.15))
    (fp_line (start -1.1 -0.55) (end 0.8 -0.55) (layer F.SilkS) (width 0.15))
    (fp_line (start -0.29 -0.55) (end -0.29 0.55) (layer F.SilkS) (width 0.15))
    (fp_line (start 1.4 -0.75) (end 1.4 0.75) (layer F.CrtYd) (width 0.05))
    (fp_line (start 1.4 0.75) (end -1.4 0.75) (layer F.CrtYd) (width 0.05))
    (fp_line (start -1.4 0.75) (end -1.4 -0.75) (layer F.CrtYd) (width 0.05))
    (fp_line (start -1.4 -0.75) (end 1.4 -0.75) (layer F.CrtYd) (width 0.05))
    (pad 2 smd rect (at 0.7493 0 180) (size 0.79756 0.79756) (layers F.Cu F.Paste F.Mask)
      (net 6 "Net-(D2-Pad2)"))
    (pad 1 smd rect (at -0.7493 0 180) (size 0.79756 0.79756) (layers F.Cu F.Paste F.Mask)
      (net 2 GND))
    (model LEDs.3dshapes/LED_0603.wrl
      (at (xyz 0 0 0))
      (scale (xyz 1 1 1))
      (rotate (xyz 0 0 180))
    )
  )

  (module Footprints:LED_0603 (layer F.Cu) (tedit 59C2BCEE) (tstamp 5AE694F9)
    (at 131.3 108.6)
    (descr "LED 0603 smd package")
    (tags "LED led 0603 SMD smd SMT smt smdled SMDLED smtled SMTLED")
    (path /5AE54975)
    (attr smd)
    (fp_text reference D3 (at -0.02 -0.45) (layer F.Fab)
      (effects (font (size 0.33 0.33) (thickness 0.0825)))
    )
    (fp_text value Orange (at 0 0.32) (layer F.Fab)
      (effects (font (size 0.33 0.33) (thickness 0.0825)))
    )
    (fp_line (start -1.1 0.55) (end 0.8 0.55) (layer F.SilkS) (width 0.15))
    (fp_line (start -1.1 -0.55) (end 0.8 -0.55) (layer F.SilkS) (width 0.15))
    (fp_line (start -0.29 -0.55) (end -0.29 0.55) (layer F.SilkS) (width 0.15))
    (fp_line (start 1.4 -0.75) (end 1.4 0.75) (layer F.CrtYd) (width 0.05))
    (fp_line (start 1.4 0.75) (end -1.4 0.75) (layer F.CrtYd) (width 0.05))
    (fp_line (start -1.4 0.75) (end -1.4 -0.75) (layer F.CrtYd) (width 0.05))
    (fp_line (start -1.4 -0.75) (end 1.4 -0.75) (layer F.CrtYd) (width 0.05))
    (pad 2 smd rect (at 0.7493 0 180) (size 0.79756 0.79756) (layers F.Cu F.Paste F.Mask)
      (net 7 "Net-(D3-Pad2)"))
    (pad 1 smd rect (at -0.7493 0 180) (size 0.79756 0.79756) (layers F.Cu F.Paste F.Mask)
      (net 2 GND))
    (model LEDs.3dshapes/LED_0603.wrl
      (at (xyz 0 0 0))
      (scale (xyz 1 1 1))
      (rotate (xyz 0 0 180))
    )
  )

  (module Housings_QFP:LQFP-48_7x7mm_Pitch0.5mm (layer F.Cu) (tedit 5AE796EA) (tstamp 5AE6952D)
    (at 139.7 107.95 225)
    (descr "48 LEAD LQFP 7x7mm (see MICREL LQFP7x7-48LD-PL-1.pdf)")
    (tags "QFP 0.5")
    (path /5AC03715)
    (attr smd)
    (fp_text reference IC1 (at -4.207285 -4.207285 315) (layer F.SilkS)
      (effects (font (size 0.75 0.75) (thickness 0.15)))
    )
    (fp_text value STM32F103Cx (at -0.070711 0 225) (layer F.Fab)
      (effects (font (size 0.66 0.66) (thickness 0.15)))
    )
    (fp_text user %R (at -2.015254 -2.085965 360) (layer F.Fab)
      (effects (font (size 1 1) (thickness 0.15)))
    )
    (fp_line (start -2.5 -3.5) (end 3.5 -3.5) (layer F.Fab) (width 0.15))
    (fp_line (start 3.5 -3.5) (end 3.5 3.5) (layer F.Fab) (width 0.15))
    (fp_line (start 3.5 3.5) (end -3.5 3.5) (layer F.Fab) (width 0.15))
    (fp_line (start -3.5 3.5) (end -3.5 -2.5) (layer F.Fab) (width 0.15))
    (fp_line (start -3.5 -2.5) (end -2.5 -3.5) (layer F.Fab) (width 0.15))
    (fp_line (start -5.25 -5.25) (end -5.25 5.25) (layer F.CrtYd) (width 0.05))
    (fp_line (start 5.25 -5.25) (end 5.25 5.25) (layer F.CrtYd) (width 0.05))
    (fp_line (start -5.25 -5.25) (end 5.25 -5.25) (layer F.CrtYd) (width 0.05))
    (fp_line (start -5.25 5.25) (end 5.25 5.25) (layer F.CrtYd) (width 0.05))
    (fp_line (start -3.625 -3.625) (end -3.625 -3.175) (layer F.SilkS) (width 0.15))
    (fp_line (start 3.625 -3.625) (end 3.625 -3.1) (layer F.SilkS) (width 0.15))
    (fp_line (start 3.625 3.625) (end 3.625 3.1) (layer F.SilkS) (width 0.15))
    (fp_line (start -3.625 3.625) (end -3.625 3.1) (layer F.SilkS) (width 0.15))
    (fp_line (start -3.625 -3.625) (end -3.1 -3.625) (layer F.SilkS) (width 0.15))
    (fp_line (start -3.625 3.625) (end -3.1 3.625) (layer F.SilkS) (width 0.15))
    (fp_line (start 3.625 3.625) (end 3.1 3.625) (layer F.SilkS) (width 0.15))
    (fp_line (start 3.625 -3.625) (end 3.1 -3.625) (layer F.SilkS) (width 0.15))
    (fp_line (start -3.625 -3.175) (end -5 -3.175) (layer F.SilkS) (width 0.15))
    (pad 1 smd rect (at -4.35 -2.75 225) (size 1.3 0.25) (layers F.Cu F.Paste F.Mask)
      (net 1 +3V3))
    (pad 2 smd rect (at -4.35 -2.25 225) (size 1.3 0.25) (layers F.Cu F.Paste F.Mask))
    (pad 3 smd rect (at -4.35 -1.75 225) (size 1.3 0.25) (layers F.Cu F.Paste F.Mask))
    (pad 4 smd rect (at -4.35 -1.25 225) (size 1.3 0.25) (layers F.Cu F.Paste F.Mask))
    (pad 5 smd rect (at -4.35 -0.75 225) (size 1.3 0.25) (layers F.Cu F.Paste F.Mask))
    (pad 6 smd rect (at -4.35 -0.25 225) (size 1.3 0.25) (layers F.Cu F.Paste F.Mask))
    (pad 7 smd rect (at -4.35 0.25 225) (size 1.3 0.25) (layers F.Cu F.Paste F.Mask)
      (net 8 /~Reset~))
    (pad 8 smd rect (at -4.35 0.75 225) (size 1.3 0.25) (layers F.Cu F.Paste F.Mask)
      (net 2 GND))
    (pad 9 smd rect (at -4.35 1.25 225) (size 1.3 0.25) (layers F.Cu F.Paste F.Mask)
      (net 1 +3V3))
    (pad 10 smd rect (at -4.35 1.75 225) (size 1.3 0.25) (layers F.Cu F.Paste F.Mask))
    (pad 11 smd rect (at -4.35 2.25 225) (size 1.3 0.25) (layers F.Cu F.Paste F.Mask))
    (pad 12 smd rect (at -4.35 2.75 225) (size 1.3 0.25) (layers F.Cu F.Paste F.Mask)
      (net 9 /Transmit))
    (pad 13 smd rect (at -2.75 4.35 315) (size 1.3 0.25) (layers F.Cu F.Paste F.Mask)
      (net 10 /Receive))
    (pad 14 smd rect (at -2.25 4.35 315) (size 1.3 0.25) (layers F.Cu F.Paste F.Mask)
      (net 11 /Shutdown))
    (pad 15 smd rect (at -1.75 4.35 315) (size 1.3 0.25) (layers F.Cu F.Paste F.Mask))
    (pad 16 smd rect (at -1.25 4.35 315) (size 1.3 0.25) (layers F.Cu F.Paste F.Mask))
    (pad 17 smd rect (at -0.75 4.35 315) (size 1.3 0.25) (layers F.Cu F.Paste F.Mask))
    (pad 18 smd rect (at -0.25 4.35 315) (size 1.3 0.25) (layers F.Cu F.Paste F.Mask))
    (pad 19 smd rect (at 0.25 4.35 315) (size 1.3 0.25) (layers F.Cu F.Paste F.Mask))
    (pad 20 smd rect (at 0.75 4.35 315) (size 1.3 0.25) (layers F.Cu F.Paste F.Mask))
    (pad 21 smd rect (at 1.25 4.35 315) (size 1.3 0.25) (layers F.Cu F.Paste F.Mask))
    (pad 22 smd rect (at 1.75 4.35 315) (size 1.3 0.25) (layers F.Cu F.Paste F.Mask))
    (pad 23 smd rect (at 2.25 4.35 315) (size 1.3 0.25) (layers F.Cu F.Paste F.Mask)
      (net 2 GND))
    (pad 24 smd rect (at 2.75 4.35 315) (size 1.3 0.25) (layers F.Cu F.Paste F.Mask)
      (net 1 +3V3))
    (pad 25 smd rect (at 4.35 2.75 225) (size 1.3 0.25) (layers F.Cu F.Paste F.Mask))
    (pad 26 smd rect (at 4.35 2.25 225) (size 1.3 0.25) (layers F.Cu F.Paste F.Mask))
    (pad 27 smd rect (at 4.35 1.75 225) (size 1.3 0.25) (layers F.Cu F.Paste F.Mask))
    (pad 28 smd rect (at 4.35 1.25 225) (size 1.3 0.25) (layers F.Cu F.Paste F.Mask))
    (pad 29 smd rect (at 4.35 0.75 225) (size 1.3 0.25) (layers F.Cu F.Paste F.Mask)
      (net 24 /D+_pullup))
    (pad 30 smd rect (at 4.35 0.25 225) (size 1.3 0.25) (layers F.Cu F.Paste F.Mask)
      (net 22 /uart1_TX))
    (pad 31 smd rect (at 4.35 -0.25 225) (size 1.3 0.25) (layers F.Cu F.Paste F.Mask)
      (net 23 /uart1_RX))
    (pad 32 smd rect (at 4.35 -0.75 225) (size 1.3 0.25) (layers F.Cu F.Paste F.Mask)
      (net 12 /cpu_D-))
    (pad 33 smd rect (at 4.35 -1.25 225) (size 1.3 0.25) (layers F.Cu F.Paste F.Mask)
      (net 13 /cpu_D+))
    (pad 34 smd rect (at 4.35 -1.75 225) (size 1.3 0.25) (layers F.Cu F.Paste F.Mask)
      (net 14 /SWDIO))
    (pad 35 smd rect (at 4.35 -2.25 225) (size 1.3 0.25) (layers F.Cu F.Paste F.Mask)
      (net 2 GND))
    (pad 36 smd rect (at 4.35 -2.75 225) (size 1.3 0.25) (layers F.Cu F.Paste F.Mask)
      (net 1 +3V3))
    (pad 37 smd rect (at 2.75 -4.35 315) (size 1.3 0.25) (layers F.Cu F.Paste F.Mask)
      (net 15 /SWCLK))
    (pad 38 smd rect (at 2.25 -4.35 315) (size 1.3 0.25) (layers F.Cu F.Paste F.Mask))
    (pad 39 smd rect (at 1.75 -4.35 315) (size 1.3 0.25) (layers F.Cu F.Paste F.Mask))
    (pad 40 smd rect (at 1.25 -4.35 315) (size 1.3 0.25) (layers F.Cu F.Paste F.Mask))
    (pad 41 smd rect (at 0.75 -4.35 315) (size 1.3 0.25) (layers F.Cu F.Paste F.Mask))
    (pad 42 smd rect (at 0.25 -4.35 315) (size 1.3 0.25) (layers F.Cu F.Paste F.Mask))
    (pad 43 smd rect (at -0.25 -4.35 315) (size 1.3 0.25) (layers F.Cu F.Paste F.Mask))
    (pad 44 smd rect (at -0.75 -4.35 315) (size 1.3 0.25) (layers F.Cu F.Paste F.Mask)
      (net 16 /Boot0))
    (pad 45 smd rect (at -1.25 -4.35 315) (size 1.3 0.25) (layers F.Cu F.Paste F.Mask)
      (net 17 /LED_R))
    (pad 46 smd rect (at -1.75 -4.35 315) (size 1.3 0.25) (layers F.Cu F.Paste F.Mask)
      (net 18 /LED_G))
    (pad 47 smd rect (at -2.25 -4.35 315) (size 1.3 0.25) (layers F.Cu F.Paste F.Mask)
      (net 2 GND))
    (pad 48 smd rect (at -2.75 -4.35 315) (size 1.3 0.25) (layers F.Cu F.Paste F.Mask)
      (net 1 +3V3))
    (model ${KISYS3DMOD}/Housings_QFP.3dshapes/LQFP-48_7x7mm_Pitch0.5mm.wrl
      (at (xyz 0 0 0))
      (scale (xyz 1 1 1))
      (rotate (xyz 0 0 0))
    )
  )

  (module Footprints:USB_Micro-B (layer F.Cu) (tedit 58DBF266) (tstamp 5AE6953E)
    (at 139.5 124.15)
    (descr "Micro USB Type B Receptacle")
    (tags "USB USB_B USB_micro USB_OTG")
    (path /5AE482D7)
    (attr smd)
    (fp_text reference J1 (at 0 -3.81762) (layer F.SilkS) hide
      (effects (font (size 0.33 0.33) (thickness 0.0825)))
    )
    (fp_text value uUSB (at 0 -2.61762) (layer F.Fab)
      (effects (font (size 0.33 0.33) (thickness 0.0825)))
    )
    (fp_line (start 0 -3.56362) (end -0.254 -3.81762) (layer F.SilkS) (width 0.15))
    (fp_line (start 0 -4.07162) (end 0 -3.56362) (layer F.SilkS) (width 0.15))
    (fp_line (start 0.254 -3.81762) (end 0 -4.07162) (layer F.SilkS) (width 0.15))
    (fp_line (start -0.254 -3.81762) (end 0.254 -3.81762) (layer F.SilkS) (width 0.15))
    (fp_line (start -4.6 -6) (end 4.6 -6) (layer F.CrtYd) (width 0.05))
    (fp_line (start 4.6 -6) (end 4.6 0.2) (layer F.CrtYd) (width 0.05))
    (fp_line (start 4.6 0.2) (end -4.6 0.2) (layer F.CrtYd) (width 0.05))
    (fp_line (start -4.6 0.2) (end -4.6 -6) (layer F.CrtYd) (width 0.05))
    (fp_line (start -3.6 0) (end 3.6 0) (layer F.Fab) (width 0.05))
    (fp_line (start -3.6 -5.15) (end 3.6 -5.15) (layer F.Fab) (width 0.05))
    (fp_line (start 3.6 -5.15) (end 3.6 0) (layer F.Fab) (width 0.05))
    (fp_line (start -3.6 0) (end -3.6 -5.15) (layer F.Fab) (width 0.05))
    (pad 1 smd rect (at -1.3 -4.8 90) (size 1.4 0.4) (layers F.Cu F.Paste F.Mask)
      (net 3 +5V))
    (pad 2 smd rect (at -0.65 -4.8 90) (size 1.4 0.4) (layers F.Cu F.Paste F.Mask)
      (net 19 /con_D-))
    (pad 3 smd rect (at 0 -4.8 90) (size 1.4 0.4) (layers F.Cu F.Paste F.Mask)
      (net 20 /con_D+))
    (pad 4 smd rect (at 0.65 -4.8 90) (size 1.4 0.4) (layers F.Cu F.Paste F.Mask))
    (pad 5 smd rect (at 1.3 -4.8 90) (size 1.4 0.4) (layers F.Cu F.Paste F.Mask)
      (net 2 GND))
    (pad 6 smd rect (at -3.2 -4.65 90) (size 1.2 1.4) (layers F.Cu F.Paste F.Mask)
      (net 2 GND))
    (pad 6 smd rect (at 3.2 -4.65 90) (size 1.2 1.4) (layers F.Cu F.Paste F.Mask)
      (net 2 GND))
    (pad 6 thru_hole oval (at -3.6 -2.15 90) (size 1.8 1.5) (drill 1.2) (layers *.Cu *.Mask F.Paste F.SilkS)
      (net 2 GND))
    (pad 6 thru_hole oval (at 3.6 -2.15 90) (size 1.8 1.5) (drill 1.2) (layers *.Cu *.Mask F.Paste F.SilkS)
      (net 2 GND))
    (pad "" np_thru_hole oval (at 2 -4.3 90) (size 0.6 0.6) (drill 0.55) (layers *.Cu))
    (pad "" np_thru_hole oval (at -2 -4.3 90) (size 0.6 0.6) (drill 0.55) (layers *.Cu))
    (pad 6 smd rect (at -1.5 -1) (size 1.1 1) (layers F.Cu F.Paste F.Mask)
      (net 2 GND))
    (pad 6 smd rect (at 1.5 -1) (size 1.1 1) (layers F.Cu F.Paste F.Mask)
      (net 2 GND))
    (model /home/vlad/Cloud/Mega/prj/KiCad/3D/uUSB.wrl
      (at (xyz 0 -0.02 0))
      (scale (xyz 0.39 0.39 0.39))
      (rotate (xyz 0 0 180))
    )
  )

  (module Footprints:R_0603 (layer F.Cu) (tedit 599DE4CD) (tstamp 5AE69552)
    (at 146.95 102.6 180)
    (descr "Resistor SMD 0603, reflow soldering, Vishay (see dcrcw.pdf)")
    (tags "resistor 0603")
    (path /5AE46822)
    (attr smd)
    (fp_text reference R1 (at 0 -0.415 180) (layer F.Fab)
      (effects (font (size 0.33 0.33) (thickness 0.0825)))
    )
    (fp_text value 10K (at 0 0.485 180) (layer F.Fab)
      (effects (font (size 0.33 0.33) (thickness 0.0825)))
    )
    (fp_line (start -1.3 -0.8) (end 1.3 -0.8) (layer F.CrtYd) (width 0.05))
    (fp_line (start -1.3 0.8) (end 1.3 0.8) (layer F.CrtYd) (width 0.05))
    (fp_line (start -1.3 -0.8) (end -1.3 0.8) (layer F.CrtYd) (width 0.05))
    (fp_line (start 1.3 -0.8) (end 1.3 0.8) (layer F.CrtYd) (width 0.05))
    (fp_line (start 0.5 0.675) (end -0.5 0.675) (layer F.SilkS) (width 0.15))
    (fp_line (start -0.5 -0.675) (end 0.5 -0.675) (layer F.SilkS) (width 0.15))
    (pad 1 smd rect (at -0.75 0 180) (size 0.5 0.9) (layers F.Cu F.Paste F.Mask)
      (net 1 +3V3))
    (pad 2 smd rect (at 0.75 0 180) (size 0.5 0.9) (layers F.Cu F.Paste F.Mask)
      (net 8 /~Reset~))
    (model Resistors_SMD.3dshapes/R_0603.wrl
      (at (xyz 0 0 0))
      (scale (xyz 1 1 1))
      (rotate (xyz 0 0 0))
    )
  )

  (module Footprints:R_0603 (layer F.Cu) (tedit 599DE4CD) (tstamp 5AE69558)
    (at 141.3 115 225)
    (descr "Resistor SMD 0603, reflow soldering, Vishay (see dcrcw.pdf)")
    (tags "resistor 0603")
    (path /5AE491B2)
    (attr smd)
    (fp_text reference R2 (at 0 -0.415 225) (layer F.Fab)
      (effects (font (size 0.33 0.33) (thickness 0.0825)))
    )
    (fp_text value 10K (at 0 0.485 225) (layer F.Fab)
      (effects (font (size 0.33 0.33) (thickness 0.0825)))
    )
    (fp_line (start -1.3 -0.8) (end 1.3 -0.8) (layer F.CrtYd) (width 0.05))
    (fp_line (start -1.3 0.8) (end 1.3 0.8) (layer F.CrtYd) (width 0.05))
    (fp_line (start -1.3 -0.8) (end -1.3 0.8) (layer F.CrtYd) (width 0.05))
    (fp_line (start 1.3 -0.8) (end 1.3 0.8) (layer F.CrtYd) (width 0.05))
    (fp_line (start 0.5 0.675) (end -0.5 0.675) (layer F.SilkS) (width 0.15))
    (fp_line (start -0.5 -0.675) (end 0.5 -0.675) (layer F.SilkS) (width 0.15))
    (pad 1 smd rect (at -0.75 0 225) (size 0.5 0.9) (layers F.Cu F.Paste F.Mask)
      (net 16 /Boot0))
    (pad 2 smd rect (at 0.75 0 225) (size 0.5 0.9) (layers F.Cu F.Paste F.Mask)
      (net 2 GND))
    (model Resistors_SMD.3dshapes/R_0603.wrl
      (at (xyz 0 0 0))
      (scale (xyz 1 1 1))
      (rotate (xyz 0 0 0))
    )
  )

  (module Footprints:R_0603 (layer F.Cu) (tedit 599DE4CD) (tstamp 5AE6955E)
    (at 146.7 101)
    (descr "Resistor SMD 0603, reflow soldering, Vishay (see dcrcw.pdf)")
    (tags "resistor 0603")
    (path /5AE54BAD)
    (attr smd)
    (fp_text reference R3 (at 0 -0.415) (layer F.Fab)
      (effects (font (size 0.33 0.33) (thickness 0.0825)))
    )
    (fp_text value 150 (at 0 0.485) (layer F.Fab)
      (effects (font (size 0.33 0.33) (thickness 0.0825)))
    )
    (fp_line (start -1.3 -0.8) (end 1.3 -0.8) (layer F.CrtYd) (width 0.05))
    (fp_line (start -1.3 0.8) (end 1.3 0.8) (layer F.CrtYd) (width 0.05))
    (fp_line (start -1.3 -0.8) (end -1.3 0.8) (layer F.CrtYd) (width 0.05))
    (fp_line (start 1.3 -0.8) (end 1.3 0.8) (layer F.CrtYd) (width 0.05))
    (fp_line (start 0.5 0.675) (end -0.5 0.675) (layer F.SilkS) (width 0.15))
    (fp_line (start -0.5 -0.675) (end 0.5 -0.675) (layer F.SilkS) (width 0.15))
    (pad 1 smd rect (at -0.75 0) (size 0.5 0.9) (layers F.Cu F.Paste F.Mask)
      (net 17 /LED_R))
    (pad 2 smd rect (at 0.75 0) (size 0.5 0.9) (layers F.Cu F.Paste F.Mask)
      (net 5 "Net-(D1-Pad2)"))
    (model Resistors_SMD.3dshapes/R_0603.wrl
      (at (xyz 0 0 0))
      (scale (xyz 1 1 1))
      (rotate (xyz 0 0 0))
    )
  )

  (module Footprints:R_0603 (layer F.Cu) (tedit 599DE4CD) (tstamp 5AE69564)
    (at 131.3 101)
    (descr "Resistor SMD 0603, reflow soldering, Vishay (see dcrcw.pdf)")
    (tags "resistor 0603")
    (path /5AE54C41)
    (attr smd)
    (fp_text reference R4 (at 0 -0.415) (layer F.Fab)
      (effects (font (size 0.33 0.33) (thickness 0.0825)))
    )
    (fp_text value 150 (at 0 0.485) (layer F.Fab)
      (effects (font (size 0.33 0.33) (thickness 0.0825)))
    )
    (fp_line (start -1.3 -0.8) (end 1.3 -0.8) (layer F.CrtYd) (width 0.05))
    (fp_line (start -1.3 0.8) (end 1.3 0.8) (layer F.CrtYd) (width 0.05))
    (fp_line (start -1.3 -0.8) (end -1.3 0.8) (layer F.CrtYd) (width 0.05))
    (fp_line (start 1.3 -0.8) (end 1.3 0.8) (layer F.CrtYd) (width 0.05))
    (fp_line (start 0.5 0.675) (end -0.5 0.675) (layer F.SilkS) (width 0.15))
    (fp_line (start -0.5 -0.675) (end 0.5 -0.675) (layer F.SilkS) (width 0.15))
    (pad 1 smd rect (at -0.75 0) (size 0.5 0.9) (layers F.Cu F.Paste F.Mask)
      (net 18 /LED_G))
    (pad 2 smd rect (at 0.75 0) (size 0.5 0.9) (layers F.Cu F.Paste F.Mask)
      (net 6 "Net-(D2-Pad2)"))
    (model Resistors_SMD.3dshapes/R_0603.wrl
      (at (xyz 0 0 0))
      (scale (xyz 1 1 1))
      (rotate (xyz 0 0 0))
    )
  )

  (module Footprints:R_0603 (layer F.Cu) (tedit 599DE4CD) (tstamp 5AE6956A)
    (at 131.3 110.2)
    (descr "Resistor SMD 0603, reflow soldering, Vishay (see dcrcw.pdf)")
    (tags "resistor 0603")
    (path /5AE54CBF)
    (attr smd)
    (fp_text reference R5 (at 0 -0.415) (layer F.Fab)
      (effects (font (size 0.33 0.33) (thickness 0.0825)))
    )
    (fp_text value 150 (at 0 0.485) (layer F.Fab)
      (effects (font (size 0.33 0.33) (thickness 0.0825)))
    )
    (fp_line (start -1.3 -0.8) (end 1.3 -0.8) (layer F.CrtYd) (width 0.05))
    (fp_line (start -1.3 0.8) (end 1.3 0.8) (layer F.CrtYd) (width 0.05))
    (fp_line (start -1.3 -0.8) (end -1.3 0.8) (layer F.CrtYd) (width 0.05))
    (fp_line (start 1.3 -0.8) (end 1.3 0.8) (layer F.CrtYd) (width 0.05))
    (fp_line (start 0.5 0.675) (end -0.5 0.675) (layer F.SilkS) (width 0.15))
    (fp_line (start -0.5 -0.675) (end 0.5 -0.675) (layer F.SilkS) (width 0.15))
    (pad 1 smd rect (at -0.75 0) (size 0.5 0.9) (layers F.Cu F.Paste F.Mask)
      (net 1 +3V3))
    (pad 2 smd rect (at 0.75 0) (size 0.5 0.9) (layers F.Cu F.Paste F.Mask)
      (net 7 "Net-(D3-Pad2)"))
    (model Resistors_SMD.3dshapes/R_0603.wrl
      (at (xyz 0 0 0))
      (scale (xyz 1 1 1))
      (rotate (xyz 0 0 0))
    )
  )

  (module Footprints:R_0603 (layer F.Cu) (tedit 599DE4CD) (tstamp 5AE69570)
    (at 135.6 114.85 270)
    (descr "Resistor SMD 0603, reflow soldering, Vishay (see dcrcw.pdf)")
    (tags "resistor 0603")
    (path /5AE48536)
    (attr smd)
    (fp_text reference R6 (at 0 -0.415 270) (layer F.Fab)
      (effects (font (size 0.33 0.33) (thickness 0.0825)))
    )
    (fp_text value 22 (at 0 0.485 270) (layer F.Fab)
      (effects (font (size 0.33 0.33) (thickness 0.0825)))
    )
    (fp_line (start -1.3 -0.8) (end 1.3 -0.8) (layer F.CrtYd) (width 0.05))
    (fp_line (start -1.3 0.8) (end 1.3 0.8) (layer F.CrtYd) (width 0.05))
    (fp_line (start -1.3 -0.8) (end -1.3 0.8) (layer F.CrtYd) (width 0.05))
    (fp_line (start 1.3 -0.8) (end 1.3 0.8) (layer F.CrtYd) (width 0.05))
    (fp_line (start 0.5 0.675) (end -0.5 0.675) (layer F.SilkS) (width 0.15))
    (fp_line (start -0.5 -0.675) (end 0.5 -0.675) (layer F.SilkS) (width 0.15))
    (pad 1 smd rect (at -0.75 0 270) (size 0.5 0.9) (layers F.Cu F.Paste F.Mask)
      (net 13 /cpu_D+))
    (pad 2 smd rect (at 0.75 0 270) (size 0.5 0.9) (layers F.Cu F.Paste F.Mask)
      (net 20 /con_D+))
    (model Resistors_SMD.3dshapes/R_0603.wrl
      (at (xyz 0 0 0))
      (scale (xyz 1 1 1))
      (rotate (xyz 0 0 0))
    )
  )

  (module Footprints:R_0603 (layer F.Cu) (tedit 599DE4CD) (tstamp 5AE69576)
    (at 134 114.7 270)
    (descr "Resistor SMD 0603, reflow soldering, Vishay (see dcrcw.pdf)")
    (tags "resistor 0603")
    (path /5AE484D5)
    (attr smd)
    (fp_text reference R7 (at 0 -0.415 270) (layer F.Fab)
      (effects (font (size 0.33 0.33) (thickness 0.0825)))
    )
    (fp_text value 22 (at 0 0.485 270) (layer F.Fab)
      (effects (font (size 0.33 0.33) (thickness 0.0825)))
    )
    (fp_line (start -1.3 -0.8) (end 1.3 -0.8) (layer F.CrtYd) (width 0.05))
    (fp_line (start -1.3 0.8) (end 1.3 0.8) (layer F.CrtYd) (width 0.05))
    (fp_line (start -1.3 -0.8) (end -1.3 0.8) (layer F.CrtYd) (width 0.05))
    (fp_line (start 1.3 -0.8) (end 1.3 0.8) (layer F.CrtYd) (width 0.05))
    (fp_line (start 0.5 0.675) (end -0.5 0.675) (layer F.SilkS) (width 0.15))
    (fp_line (start -0.5 -0.675) (end 0.5 -0.675) (layer F.SilkS) (width 0.15))
    (pad 1 smd rect (at -0.75 0 270) (size 0.5 0.9) (layers F.Cu F.Paste F.Mask)
      (net 12 /cpu_D-))
    (pad 2 smd rect (at 0.75 0 270) (size 0.5 0.9) (layers F.Cu F.Paste F.Mask)
      (net 19 /con_D-))
    (model Resistors_SMD.3dshapes/R_0603.wrl
      (at (xyz 0 0 0))
      (scale (xyz 1 1 1))
      (rotate (xyz 0 0 0))
    )
  )

  (module Footprints:R_0603 (layer F.Cu) (tedit 599DE4CD) (tstamp 5AE6957C)
    (at 144.1 101 180)
    (descr "Resistor SMD 0603, reflow soldering, Vishay (see dcrcw.pdf)")
    (tags "resistor 0603")
    (path /5AC0737B)
    (attr smd)
    (fp_text reference R8 (at 0 -0.415 180) (layer F.Fab)
      (effects (font (size 0.33 0.33) (thickness 0.0825)))
    )
    (fp_text value 47 (at 0 0.485 180) (layer F.Fab)
      (effects (font (size 0.33 0.33) (thickness 0.0825)))
    )
    (fp_line (start -1.3 -0.8) (end 1.3 -0.8) (layer F.CrtYd) (width 0.05))
    (fp_line (start -1.3 0.8) (end 1.3 0.8) (layer F.CrtYd) (width 0.05))
    (fp_line (start -1.3 -0.8) (end -1.3 0.8) (layer F.CrtYd) (width 0.05))
    (fp_line (start 1.3 -0.8) (end 1.3 0.8) (layer F.CrtYd) (width 0.05))
    (fp_line (start 0.5 0.675) (end -0.5 0.675) (layer F.SilkS) (width 0.15))
    (fp_line (start -0.5 -0.675) (end 0.5 -0.675) (layer F.SilkS) (width 0.15))
    (pad 1 smd rect (at -0.75 0 180) (size 0.5 0.9) (layers F.Cu F.Paste F.Mask)
      (net 1 +3V3))
    (pad 2 smd rect (at 0.75 0 180) (size 0.5 0.9) (layers F.Cu F.Paste F.Mask)
      (net 21 "Net-(R8-Pad2)"))
    (model Resistors_SMD.3dshapes/R_0603.wrl
      (at (xyz 0 0 0))
      (scale (xyz 1 1 1))
      (rotate (xyz 0 0 0))
    )
  )

  (module Footprints:R_0603 (layer F.Cu) (tedit 599DE4CD) (tstamp 5AE69582)
    (at 135.3 99.6 270)
    (descr "Resistor SMD 0603, reflow soldering, Vishay (see dcrcw.pdf)")
    (tags "resistor 0603")
    (path /5AC0722E)
    (attr smd)
    (fp_text reference R9 (at 0 -0.415 270) (layer F.Fab)
      (effects (font (size 0.33 0.33) (thickness 0.0825)))
    )
    (fp_text value 22 (at 0 0.485 270) (layer F.Fab)
      (effects (font (size 0.33 0.33) (thickness 0.0825)))
    )
    (fp_line (start -1.3 -0.8) (end 1.3 -0.8) (layer F.CrtYd) (width 0.05))
    (fp_line (start -1.3 0.8) (end 1.3 0.8) (layer F.CrtYd) (width 0.05))
    (fp_line (start -1.3 -0.8) (end -1.3 0.8) (layer F.CrtYd) (width 0.05))
    (fp_line (start 1.3 -0.8) (end 1.3 0.8) (layer F.CrtYd) (width 0.05))
    (fp_line (start 0.5 0.675) (end -0.5 0.675) (layer F.SilkS) (width 0.15))
    (fp_line (start -0.5 -0.675) (end 0.5 -0.675) (layer F.SilkS) (width 0.15))
    (pad 1 smd rect (at -0.75 0 270) (size 0.5 0.9) (layers F.Cu F.Paste F.Mask)
      (net 4 "Net-(C8-Pad1)"))
    (pad 2 smd rect (at 0.75 0 270) (size 0.5 0.9) (layers F.Cu F.Paste F.Mask)
      (net 1 +3V3))
    (model Resistors_SMD.3dshapes/R_0603.wrl
      (at (xyz 0 0 0))
      (scale (xyz 1 1 1))
      (rotate (xyz 0 0 0))
    )
  )

  (module TO_SOT_Packages_SMD:SOT-23-5 (layer F.Cu) (tedit 5AE796D9) (tstamp 5AE6958B)
    (at 131.35 114.45 90)
    (descr "5-pin SOT23 package")
    (tags SOT-23-5)
    (path /5AE46F30)
    (attr smd)
    (fp_text reference U1 (at 0.075 0 180) (layer F.Fab)
      (effects (font (size 1 1) (thickness 0.15)))
    )
    (fp_text value APE8865U5-33-HF-3 (at 0 -4.1 90) (layer F.Fab)
      (effects (font (size 0.75 0.75) (thickness 0.15)))
    )
    (fp_text user %R (at 0 0 180) (layer F.Fab)
      (effects (font (size 0.5 0.5) (thickness 0.075)))
    )
    (fp_line (start -0.9 1.61) (end 0.9 1.61) (layer F.SilkS) (width 0.12))
    (fp_line (start 0.9 -1.61) (end -1.55 -1.61) (layer F.SilkS) (width 0.12))
    (fp_line (start -1.9 -1.8) (end 1.9 -1.8) (layer F.CrtYd) (width 0.05))
    (fp_line (start 1.9 -1.8) (end 1.9 1.8) (layer F.CrtYd) (width 0.05))
    (fp_line (start 1.9 1.8) (end -1.9 1.8) (layer F.CrtYd) (width 0.05))
    (fp_line (start -1.9 1.8) (end -1.9 -1.8) (layer F.CrtYd) (width 0.05))
    (fp_line (start -0.9 -0.9) (end -0.25 -1.55) (layer F.Fab) (width 0.1))
    (fp_line (start 0.9 -1.55) (end -0.25 -1.55) (layer F.Fab) (width 0.1))
    (fp_line (start -0.9 -0.9) (end -0.9 1.55) (layer F.Fab) (width 0.1))
    (fp_line (start 0.9 1.55) (end -0.9 1.55) (layer F.Fab) (width 0.1))
    (fp_line (start 0.9 -1.55) (end 0.9 1.55) (layer F.Fab) (width 0.1))
    (pad 1 smd rect (at -1.1 -0.95 90) (size 1.06 0.65) (layers F.Cu F.Paste F.Mask)
      (net 3 +5V))
    (pad 2 smd rect (at -1.1 0 90) (size 1.06 0.65) (layers F.Cu F.Paste F.Mask)
      (net 2 GND))
    (pad 3 smd rect (at -1.1 0.95 90) (size 1.06 0.65) (layers F.Cu F.Paste F.Mask)
      (net 3 +5V))
    (pad 4 smd rect (at 1.1 0.95 90) (size 1.06 0.65) (layers F.Cu F.Paste F.Mask))
    (pad 5 smd rect (at 1.1 -0.95 90) (size 1.06 0.65) (layers F.Cu F.Paste F.Mask)
      (net 1 +3V3))
    (model ${KISYS3DMOD}/TO_SOT_Packages_SMD.3dshapes/SOT-23-5.wrl
      (at (xyz 0 0 0))
      (scale (xyz 1 1 1))
      (rotate (xyz 0 0 0))
    )
  )

  (module Footprints:SIR_TFBS4650 (layer F.Cu) (tedit 5AE6AD0B) (tstamp 5AE69596)
    (at 139.7 99.55 180)
    (path /5AC06024)
    (fp_text reference U2 (at 0 -1.5 180) (layer F.SilkS)
      (effects (font (size 0.75 0.75) (thickness 0.15)))
    )
    (fp_text value S212S01 (at 0 3.2 180) (layer F.Fab)
      (effects (font (size 0.75 0.75) (thickness 0.15)))
    )
    (fp_arc (start 2.2 1.45) (end 3.95 3.3) (angle 86.81771857) (layer F.SilkS) (width 0.15))
    (fp_arc (start 2.2 1.45) (end 3.6 2.9) (angle 87.95328732) (layer F.SilkS) (width 0.15))
    (fp_arc (start 2.2 1.45) (end 3.3 2.55) (angle 90) (layer F.SilkS) (width 0.15))
    (fp_line (start -1.3 3.85) (end -1.55 3.65) (layer F.SilkS) (width 0.15))
    (fp_line (start -1.3 3.85) (end -1.25 3.55) (layer F.SilkS) (width 0.15))
    (fp_line (start -0.45 3.3) (end -0.8 3.2) (layer F.SilkS) (width 0.15))
    (fp_line (start -0.45 3.3) (end -0.55 2.95) (layer F.SilkS) (width 0.15))
    (fp_line (start -4 3.25) (end -3.9 2.9) (layer F.SilkS) (width 0.15))
    (fp_line (start -4 3.25) (end -3.65 3.15) (layer F.SilkS) (width 0.15))
    (fp_line (start -3.2 3.8) (end -3.25 3.45) (layer F.SilkS) (width 0.15))
    (fp_line (start -3.2 3.8) (end -2.95 3.6) (layer F.SilkS) (width 0.15))
    (fp_line (start -2.25 4) (end -2.4 3.7) (layer F.SilkS) (width 0.15))
    (fp_line (start -2.25 4) (end -2.1 3.7) (layer F.SilkS) (width 0.15))
    (fp_line (start -4 3.25) (end -3.3 2.55) (layer F.SilkS) (width 0.15))
    (fp_line (start -2.8 2.85) (end -3.2 3.8) (layer F.SilkS) (width 0.15))
    (fp_line (start -0.45 3.3) (end -1.15 2.6) (layer F.SilkS) (width 0.15))
    (fp_line (start -1.3 3.85) (end -1.7 2.9) (layer F.SilkS) (width 0.15))
    (fp_line (start -2.25 4) (end -2.25 3) (layer F.SilkS) (width 0.15))
    (fp_line (start -1 1.45) (end 1 1.45) (layer F.Fab) (width 0.15))
    (fp_arc (start -2.2 1.45) (end -1 1.45) (angle 180) (layer F.Fab) (width 0.15))
    (fp_arc (start 2.2 1.45) (end 3.4 1.45) (angle 180) (layer F.Fab) (width 0.15))
    (fp_line (start 3.4 -0.2) (end 3.4 1.45) (layer F.Fab) (width 0.15))
    (fp_line (start -3.4 -0.2) (end -3.4 1.45) (layer F.Fab) (width 0.15))
    (fp_line (start -3.4 -0.2) (end 3.4 -0.2) (layer F.Fab) (width 0.15))
    (fp_line (start -3.325 -0.86) (end 3.325 -0.86) (layer F.SilkS) (width 0.15))
    (fp_line (start -3.325 0.86) (end 3.325 0.86) (layer F.SilkS) (width 0.15))
    (fp_line (start -3.325 0) (end -3.325 -0.86) (layer F.SilkS) (width 0.15))
    (fp_line (start 3.325 0) (end 3.325 -0.86) (layer F.SilkS) (width 0.15))
    (pad 1 smd rect (at -2.85 0 180) (size 0.64 1.27) (layers F.Cu F.Paste F.Mask)
      (net 21 "Net-(R8-Pad2)"))
    (pad 2 smd rect (at -1.9 0 180) (size 0.64 1.27) (layers F.Cu F.Paste F.Mask))
    (pad 3 smd rect (at -0.95 0 180) (size 0.64 1.27) (layers F.Cu F.Paste F.Mask)
      (net 9 /Transmit))
    (pad 4 smd rect (at 0 0 180) (size 0.64 1.27) (layers F.Cu F.Paste F.Mask)
      (net 10 /Receive))
    (pad 5 smd rect (at 0.95 0 180) (size 0.64 1.27) (layers F.Cu F.Paste F.Mask)
      (net 11 /Shutdown))
    (pad 6 smd rect (at 1.9 0 180) (size 0.64 1.27) (layers F.Cu F.Paste F.Mask)
      (net 4 "Net-(C8-Pad1)"))
    (pad 7 smd rect (at 2.85 0 180) (size 0.64 1.27) (layers F.Cu F.Paste F.Mask)
      (net 2 GND))
  )

  (module Pin_Headers:Pin_Header_Straight_2x02 (layer B.Cu) (tedit 5AE7968A) (tstamp 5AE7FA92)
    (at 130.65 122.35)
    (descr "Through hole pin header")
    (tags "pin header")
    (path /5AE79A5F)
    (fp_text reference P2 (at 0.975 -4.825) (layer B.SilkS) hide
      (effects (font (size 1 1) (thickness 0.15)) (justify mirror))
    )
    (fp_text value CONN_01X04 (at 0 3.1) (layer B.Fab)
      (effects (font (size 1 1) (thickness 0.15)) (justify mirror))
    )
    (fp_line (start -1.75 1.75) (end -1.75 -4.3) (layer B.CrtYd) (width 0.05))
    (fp_line (start 4.3 1.75) (end 4.3 -4.3) (layer B.CrtYd) (width 0.05))
    (fp_line (start -1.75 1.75) (end 4.3 1.75) (layer B.CrtYd) (width 0.05))
    (fp_line (start -1.75 -4.3) (end 4.3 -4.3) (layer B.CrtYd) (width 0.05))
    (fp_line (start -1.55 0) (end -1.55 1.55) (layer B.SilkS) (width 0.15))
    (fp_line (start 0 1.55) (end -1.55 1.55) (layer B.SilkS) (width 0.15))
    (fp_line (start -1.27 -1.27) (end 1.27 -1.27) (layer B.SilkS) (width 0.15))
    (fp_line (start 1.27 -1.27) (end 1.27 1.27) (layer B.SilkS) (width 0.15))
    (fp_line (start 1.27 1.27) (end 3.81 1.27) (layer B.SilkS) (width 0.15))
    (fp_line (start 3.81 1.27) (end 3.81 -3.81) (layer B.SilkS) (width 0.15))
    (fp_line (start 3.81 -3.81) (end -1.27 -3.81) (layer B.SilkS) (width 0.15))
    (fp_line (start -1.27 -3.81) (end -1.27 -1.27) (layer B.SilkS) (width 0.15))
    (pad 1 thru_hole rect (at 0 0) (size 1.7272 1.7272) (drill 1.016) (layers *.Cu *.Mask B.SilkS)
      (net 1 +3V3))
    (pad 4 thru_hole oval (at 2.54 0) (size 1.7272 1.7272) (drill 1.016) (layers *.Cu *.Mask B.SilkS)
      (net 2 GND))
    (pad 3 thru_hole oval (at 0 -2.54) (size 1.7272 1.7272) (drill 1.016) (layers *.Cu *.Mask B.SilkS)
      (net 23 /uart1_RX))
    (pad 2 thru_hole oval (at 2.54 -2.54) (size 1.7272 1.7272) (drill 1.016) (layers *.Cu *.Mask B.SilkS)
      (net 22 /uart1_TX))
    (model Pin_Headers.3dshapes/Pin_Header_Straight_2x02.wrl
      (at (xyz 0.05 -0.05 0))
      (scale (xyz 1 1 1))
      (rotate (xyz 0 0 90))
    )
  )

  (gr_text hw.0.2 (at 147 122.8) (layer F.SilkS)
    (effects (font (size 1 1) (thickness 0.25)))
  )
  (gr_text "rev 0.2 - pin 29 is added as pull-up for D+ trough 1K5" (at 222.4 186) (layer Cmts.User)
    (effects (font (size 1 1) (thickness 0.25)))
  )
  (gr_text "RX\nTX" (at 132 116.825 90) (layer B.SilkS)
    (effects (font (size 1.5 1.5) (thickness 0.3)) (justify mirror))
  )
  (gr_line (start 129 124) (end 129 98) (layer Edge.Cuts) (width 0.15))
  (gr_line (start 150 124) (end 129 124) (layer Edge.Cuts) (width 0.15))
  (gr_line (start 150 98) (end 150 124) (layer Edge.Cuts) (width 0.15))
  (gr_line (start 129 98) (end 150 98) (layer Edge.Cuts) (width 0.15))
  (dimension 26 (width 0.3) (layer Cmts.User)
    (gr_text "26.000 mm" (at 124.702505 111 270) (layer Cmts.User)
      (effects (font (size 1.5 1.5) (thickness 0.3)))
    )
    (feature1 (pts (xy 150 124) (xy 123.352505 124)))
    (feature2 (pts (xy 150 98) (xy 123.352505 98)))
    (crossbar (pts (xy 126.052505 98) (xy 126.052505 124)))
    (arrow1a (pts (xy 126.052505 124) (xy 125.466084 122.873496)))
    (arrow1b (pts (xy 126.052505 124) (xy 126.638926 122.873496)))
    (arrow2a (pts (xy 126.052505 98) (xy 125.466084 99.126504)))
    (arrow2b (pts (xy 126.052505 98) (xy 126.638926 99.126504)))
  )
  (dimension 21 (width 0.3) (layer Cmts.User)
    (gr_text "21.000 mm" (at 139.5 88.65) (layer Cmts.User)
      (effects (font (size 1.5 1.5) (thickness 0.3)))
    )
    (feature1 (pts (xy 129 115) (xy 129 87.3)))
    (feature2 (pts (xy 150 115) (xy 150 87.3)))
    (crossbar (pts (xy 150 90) (xy 129 90)))
    (arrow1a (pts (xy 129 90) (xy 130.126504 89.413579)))
    (arrow1b (pts (xy 129 90) (xy 130.126504 90.586421)))
    (arrow2a (pts (xy 150 90) (xy 148.873496 89.413579)))
    (arrow2b (pts (xy 150 90) (xy 148.873496 90.586421)))
  )

  (segment (start 130.55 111.05) (end 131.75 109.85) (width 0.25) (layer B.Cu) (net 1))
  (segment (start 131.75 109.85) (end 134.825002 109.85) (width 0.25) (layer B.Cu) (net 1))
  (segment (start 134.825002 109.85) (end 139.25 114.274998) (width 0.25) (layer B.Cu) (net 1))
  (segment (start 139.25 114.274998) (end 139.25 114.625) (width 0.25) (layer B.Cu) (net 1))
  (segment (start 139.25 114.625) (end 139.25 115.43934) (width 0.25) (layer F.Cu) (net 1))
  (segment (start 139.25 115.43934) (end 138.96967 115.71967) (width 0.25) (layer F.Cu) (net 1))
  (segment (start 138.568629 112.970458) (end 138.568629 112.981371) (width 0.25) (layer F.Cu) (net 1))
  (segment (start 138.568629 112.981371) (end 138 113.55) (width 0.25) (layer F.Cu) (net 1))
  (segment (start 138 113.55) (end 138 114.75) (width 0.25) (layer F.Cu) (net 1))
  (segment (start 138 114.75) (end 138.96967 115.71967) (width 0.25) (layer F.Cu) (net 1))
  (segment (start 130.65 122.35) (end 131.7636 122.35) (width 0.25) (layer B.Cu) (net 1))
  (segment (start 131.95 121.625) (end 132.525 121.05) (width 0.25) (layer B.Cu) (net 1))
  (segment (start 131.7636 122.35) (end 131.95 122.1636) (width 0.25) (layer B.Cu) (net 1))
  (segment (start 139.25 115.049264) (end 139.25 114.625) (width 0.25) (layer B.Cu) (net 1))
  (segment (start 131.95 122.1636) (end 131.95 121.625) (width 0.25) (layer B.Cu) (net 1))
  (segment (start 132.525 121.05) (end 133.70913 121.05) (width 0.25) (layer B.Cu) (net 1))
  (segment (start 133.70913 121.05) (end 139.25 115.50913) (width 0.25) (layer B.Cu) (net 1))
  (segment (start 139.25 115.50913) (end 139.25 115.049264) (width 0.25) (layer B.Cu) (net 1))
  (segment (start 144.125 102.125) (end 144.125 101.025) (width 0.25) (layer B.Cu) (net 1))
  (segment (start 144.15 101) (end 144.125 101.025) (width 0.25) (layer F.Cu) (net 1))
  (via (at 144.125 101.025) (size 0.6) (drill 0.4) (layers F.Cu B.Cu) (net 1))
  (segment (start 146.375 104.375) (end 144.125 102.125) (width 0.25) (layer B.Cu) (net 1))
  (segment (start 144.85 101) (end 144.15 101) (width 0.25) (layer F.Cu) (net 1))
  (segment (start 139.25 114.625) (end 140.75 114.625) (width 0.25) (layer B.Cu) (net 1))
  (segment (start 140.75 114.625) (end 146.675 108.7) (width 0.25) (layer B.Cu) (net 1))
  (segment (start 146.375 104.375) (end 146.575 104.575) (width 0.25) (layer B.Cu) (net 1))
  (segment (start 146.575 104.575) (end 146.575 108.6) (width 0.25) (layer B.Cu) (net 1))
  (segment (start 146.575 108.6) (end 146.675 108.7) (width 0.25) (layer B.Cu) (net 1))
  (segment (start 147.36066 109.48934) (end 147.36066 109.38566) (width 0.25) (layer F.Cu) (net 1))
  (segment (start 147.36066 109.38566) (end 146.675 108.7) (width 0.25) (layer F.Cu) (net 1))
  (via (at 146.675 108.7) (size 0.6) (drill 0.4) (layers F.Cu B.Cu) (net 1))
  (segment (start 131.275 105.375) (end 131.65368 105.375) (width 0.25) (layer F.Cu) (net 1))
  (segment (start 131.65368 105.375) (end 132.13934 105.86066) (width 0.25) (layer F.Cu) (net 1))
  (segment (start 130.55 111.05) (end 130.55 106.1) (width 0.25) (layer B.Cu) (net 1))
  (via (at 131.275 105.375) (size 0.6) (drill 0.4) (layers F.Cu B.Cu) (net 1))
  (segment (start 130.55 106.1) (end 131.275 105.375) (width 0.25) (layer B.Cu) (net 1))
  (segment (start 146.375 104.375) (end 146.375 105.125) (width 0.25) (layer F.Cu) (net 1))
  (segment (start 146.375 105.125) (end 146.2 105.3) (width 0.25) (layer F.Cu) (net 1))
  (via (at 146.375 104.375) (size 0.6) (drill 0.4) (layers F.Cu B.Cu) (net 1))
  (segment (start 146.2 105.3) (end 146.2 104.1) (width 0.25) (layer F.Cu) (net 1))
  (segment (start 147 103.3) (end 147.2 103.3) (width 0.25) (layer F.Cu) (net 1))
  (segment (start 146.2 104.1) (end 147 103.3) (width 0.25) (layer F.Cu) (net 1))
  (segment (start 147.2 103.3) (end 147.7 102.8) (width 0.25) (layer F.Cu) (net 1))
  (segment (start 147.7 102.8) (end 147.7 102.6) (width 0.25) (layer F.Cu) (net 1))
  (segment (start 139.25 114.625) (end 139.25 114.7) (width 0.25) (layer F.Cu) (net 1))
  (via (at 139.25 114.625) (size 0.6) (drill 0.4) (layers F.Cu B.Cu) (net 1))
  (segment (start 130.55 111.05) (end 130.55 110.2) (width 0.25) (layer F.Cu) (net 1))
  (segment (start 130.55 111.8) (end 130.55 111.05) (width 0.25) (layer F.Cu) (net 1))
  (via (at 130.55 111.05) (size 0.6) (drill 0.4) (layers F.Cu B.Cu) (net 1))
  (segment (start 135.3 100.35) (end 135.3 100.85) (width 0.25) (layer F.Cu) (net 1))
  (segment (start 135.3 100.85) (end 132.13934 104.01066) (width 0.25) (layer F.Cu) (net 1))
  (segment (start 132.13934 104.01066) (end 132.13934 105.23033) (width 0.25) (layer F.Cu) (net 1))
  (segment (start 132.13934 105.23033) (end 132.13934 105.86066) (width 0.25) (layer F.Cu) (net 1))
  (segment (start 148.7 117.64) (end 147.25 117.64) (width 0.25) (layer F.Cu) (net 1))
  (segment (start 147.25 117.64) (end 146.725 117.115) (width 0.25) (layer F.Cu) (net 1))
  (segment (start 146.725 117.115) (end 146.725 111.85) (width 0.25) (layer F.Cu) (net 1))
  (segment (start 146.725 111.85) (end 147.36066 111.21434) (width 0.25) (layer F.Cu) (net 1))
  (segment (start 147.36066 111.21434) (end 147.36066 109.48934) (width 0.25) (layer F.Cu) (net 1))
  (segment (start 130.4 113.35) (end 130.4 111.95) (width 0.25) (layer F.Cu) (net 1))
  (segment (start 130.4 111.95) (end 130.55 111.8) (width 0.25) (layer F.Cu) (net 1))
  (segment (start 132.13934 105.86066) (end 132.55368 106.275) (width 0.25) (layer F.Cu) (net 1))
  (segment (start 132.55368 106.275) (end 134.135913 106.275) (width 0.25) (layer F.Cu) (net 1))
  (segment (start 134.135913 106.275) (end 134.679542 106.818629) (width 0.25) (layer F.Cu) (net 1))
  (segment (start 145.85 109.95) (end 145.589087 109.95) (width 0.25) (layer F.Cu) (net 1))
  (segment (start 145.589087 109.95) (end 144.720458 109.081371) (width 0.25) (layer F.Cu) (net 1))
  (segment (start 146.31066 109.48934) (end 145.85 109.95) (width 0.25) (layer F.Cu) (net 1))
  (segment (start 147.36066 109.48934) (end 146.31066 109.48934) (width 0.25) (layer F.Cu) (net 1))
  (segment (start 146.2 105.3) (end 146.2 105.339087) (width 0.25) (layer F.Cu) (net 1))
  (segment (start 146.2 105.339087) (end 144.720458 106.818629) (width 0.25) (layer F.Cu) (net 1))
  (segment (start 143.45 102.6) (end 143.282233 102.6) (width 0.25) (layer F.Cu) (net 1))
  (segment (start 143.282233 102.6) (end 141.892031 103.990202) (width 0.25) (layer F.Cu) (net 1))
  (segment (start 143.45 102.6) (end 143.45 102.4) (width 0.25) (layer F.Cu) (net 1))
  (segment (start 143.45 102.4) (end 144.85 101) (width 0.25) (layer F.Cu) (net 1))
  (segment (start 134.3 110.35) (end 133 110.35) (width 0.25) (layer B.Cu) (net 2))
  (segment (start 132.523607 111.097215) (end 132.523607 110.672951) (width 0.25) (layer B.Cu) (net 2))
  (segment (start 132.523607 110.672951) (end 132.846558 110.35) (width 0.25) (layer B.Cu) (net 2))
  (segment (start 132.846558 110.35) (end 133 110.35) (width 0.25) (layer B.Cu) (net 2))
  (segment (start 132.05 111.570822) (end 132.523607 111.097215) (width 0.25) (layer F.Cu) (net 2))
  (segment (start 132.05 111.8) (end 132.05 111.570822) (width 0.25) (layer F.Cu) (net 2))
  (via (at 132.523607 111.097215) (size 0.6) (drill 0.4) (layers F.Cu B.Cu) (net 2))
  (segment (start 137.000001 113.050001) (end 134.3 110.35) (width 0.25) (layer B.Cu) (net 2))
  (segment (start 137.35 113.35) (end 137.050001 113.050001) (width 0.25) (layer B.Cu) (net 2))
  (segment (start 137.050001 113.050001) (end 137.000001 113.050001) (width 0.25) (layer B.Cu) (net 2))
  (segment (start 137.481981 113.35) (end 137.35 113.35) (width 0.25) (layer F.Cu) (net 2))
  (via (at 137.35 113.35) (size 0.6) (drill 0.4) (layers F.Cu B.Cu) (net 2))
  (segment (start 138.215076 112.616905) (end 137.481981 113.35) (width 0.25) (layer F.Cu) (net 2))
  (segment (start 142.7 119.5) (end 142.7 117.46066) (width 0.25) (layer F.Cu) (net 2))
  (segment (start 142.7 117.46066) (end 140.76967 115.53033) (width 0.25) (layer F.Cu) (net 2))
  (segment (start 140.76967 115.53033) (end 140.76967 116.04099) (width 0.25) (layer F.Cu) (net 2))
  (segment (start 140.76967 116.04099) (end 140.03033 116.78033) (width 0.25) (layer F.Cu) (net 2))
  (segment (start 133.19 122.35) (end 135.55 122.35) (width 0.25) (layer B.Cu) (net 2))
  (segment (start 135.55 122.35) (end 135.9 122) (width 0.25) (layer B.Cu) (net 2))
  (segment (start 135.9 121.85) (end 135.9 122) (width 0.25) (layer B.Cu) (net 2))
  (segment (start 130.83641 118.4) (end 130.5 118.06359) (width 0.25) (layer F.Cu) (net 2))
  (segment (start 130.5 118.06359) (end 130.5 117.1) (width 0.25) (layer F.Cu) (net 2))
  (segment (start 136.3 119.5) (end 136.3 118.65) (width 0.25) (layer F.Cu) (net 2))
  (segment (start 136.3 118.65) (end 136.05 118.4) (width 0.25) (layer F.Cu) (net 2))
  (segment (start 136.05 118.4) (end 130.83641 118.4) (width 0.25) (layer F.Cu) (net 2))
  (segment (start 145.825 111.4) (end 143.1 114.125) (width 0.25) (layer B.Cu) (net 2))
  (segment (start 143.1 114.125) (end 143.1 122) (width 0.25) (layer B.Cu) (net 2))
  (segment (start 146.3 110.55) (end 146.3 110.925) (width 0.25) (layer F.Cu) (net 2))
  (via (at 145.825 111.4) (size 0.6) (drill 0.4) (layers F.Cu B.Cu) (net 2))
  (segment (start 146.3 110.925) (end 145.825 111.4) (width 0.25) (layer F.Cu) (net 2))
  (segment (start 148.9 103.95) (end 148.9 101.975) (width 0.25) (layer B.Cu) (net 2))
  (segment (start 148.9 101.975) (end 148.9 98.775) (width 0.25) (layer B.Cu) (net 2))
  (segment (start 145.40982 101.857182) (end 145.834084 101.857182) (width 0.25) (layer B.Cu) (net 2))
  (segment (start 145.834084 101.857182) (end 145.951902 101.975) (width 0.25) (layer B.Cu) (net 2))
  (segment (start 145.951902 101.975) (end 148.9 101.975) (width 0.25) (layer B.Cu) (net 2))
  (segment (start 144.95 102.6) (end 144.95 102.317002) (width 0.25) (layer F.Cu) (net 2))
  (segment (start 144.95 102.317002) (end 145.40982 101.857182) (width 0.25) (layer F.Cu) (net 2))
  (via (at 145.40982 101.857182) (size 0.6) (drill 0.4) (layers F.Cu B.Cu) (net 2))
  (segment (start 131.175 100.175) (end 143.2 100.175) (width 0.25) (layer B.Cu) (net 2))
  (segment (start 143.2 100.175) (end 144.625 98.75) (width 0.25) (layer B.Cu) (net 2))
  (segment (start 130.5507 99.4) (end 130.5507 99.5507) (width 0.25) (layer F.Cu) (net 2))
  (segment (start 130.5507 99.5507) (end 131.175 100.175) (width 0.25) (layer F.Cu) (net 2))
  (via (at 131.175 100.175) (size 0.6) (drill 0.4) (layers F.Cu B.Cu) (net 2))
  (segment (start 144.625 98.75) (end 145.3007 98.75) (width 0.25) (layer F.Cu) (net 2))
  (segment (start 145.3007 98.75) (end 145.9507 99.4) (width 0.25) (layer F.Cu) (net 2))
  (segment (start 148.725 98.6) (end 144.775 98.6) (width 0.25) (layer B.Cu) (net 2))
  (segment (start 144.775 98.6) (end 144.625 98.75) (width 0.25) (layer B.Cu) (net 2))
  (via (at 144.625 98.75) (size 0.6) (drill 0.4) (layers F.Cu B.Cu) (net 2))
  (segment (start 148.9 98.775) (end 148.725 98.6) (width 0.25) (layer B.Cu) (net 2))
  (segment (start 149.15 104.2) (end 148.9 103.95) (width 0.25) (layer B.Cu) (net 2))
  (segment (start 149.15 119.275) (end 149.15 104.2) (width 0.25) (layer B.Cu) (net 2))
  (segment (start 146.425 122) (end 149.15 119.275) (width 0.25) (layer B.Cu) (net 2))
  (segment (start 143.1 122) (end 146.425 122) (width 0.25) (layer B.Cu) (net 2))
  (segment (start 148.8 111.835) (end 148.8 107.025) (width 0.25) (layer F.Cu) (net 2))
  (segment (start 148.8 107.025) (end 147.7 105.925) (width 0.25) (layer F.Cu) (net 2))
  (segment (start 147.7 105.925) (end 147.7 105.3) (width 0.25) (layer F.Cu) (net 2))
  (segment (start 148.7 112.56) (end 148.7 111.935) (width 0.25) (layer F.Cu) (net 2))
  (segment (start 148.7 111.935) (end 148.8 111.835) (width 0.25) (layer F.Cu) (net 2))
  (segment (start 148.275001 103.424999) (end 147.7 104) (width 0.25) (layer F.Cu) (net 2))
  (segment (start 147.7 104) (end 147.7 105.3) (width 0.25) (layer F.Cu) (net 2))
  (segment (start 148.173081 100.101919) (end 148.275001 100.203839) (width 0.25) (layer F.Cu) (net 2))
  (segment (start 148.275001 100.203839) (end 148.275001 103.424999) (width 0.25) (layer F.Cu) (net 2))
  (segment (start 146.02692 98.675) (end 148.106862 98.675) (width 0.25) (layer F.Cu) (net 2))
  (segment (start 148.106862 98.675) (end 148.173081 98.741219) (width 0.25) (layer F.Cu) (net 2))
  (segment (start 148.173081 98.741219) (end 148.173081 100.101919) (width 0.25) (layer F.Cu) (net 2))
  (segment (start 145.9507 99.4) (end 145.9507 98.75122) (width 0.25) (layer F.Cu) (net 2))
  (segment (start 145.9507 98.75122) (end 146.02692 98.675) (width 0.25) (layer F.Cu) (net 2))
  (segment (start 133.553553 104.146447) (end 136.85 100.85) (width 0.25) (layer F.Cu) (net 2))
  (segment (start 136.85 100.85) (end 136.85 99.55) (width 0.25) (layer F.Cu) (net 2))
  (segment (start 133.2 104.8) (end 133.553553 104.446447) (width 0.25) (layer F.Cu) (net 2))
  (segment (start 133.553553 104.446447) (end 133.553553 104.146447) (width 0.25) (layer F.Cu) (net 2))
  (segment (start 131.175002 109.224302) (end 130.5507 108.6) (width 0.25) (layer F.Cu) (net 2))
  (segment (start 132.025 111.8) (end 131.175002 110.950002) (width 0.25) (layer F.Cu) (net 2))
  (segment (start 131.175002 110.950002) (end 131.175002 109.224302) (width 0.25) (layer F.Cu) (net 2))
  (segment (start 131.2 113.990002) (end 131.2 112.625) (width 0.25) (layer F.Cu) (net 2))
  (segment (start 131.2 112.625) (end 132.025 111.8) (width 0.25) (layer F.Cu) (net 2))
  (segment (start 132.025 111.8) (end 132.05 111.8) (width 0.25) (layer F.Cu) (net 2))
  (segment (start 130.5 117.1) (end 130.475 117.1) (width 0.25) (layer F.Cu) (net 2))
  (segment (start 130.475 117.1) (end 129.749999 116.374999) (width 0.25) (layer F.Cu) (net 2))
  (segment (start 129.749999 116.374999) (end 129.749999 114.759999) (width 0.25) (layer F.Cu) (net 2))
  (segment (start 129.749999 114.759999) (end 130.304997 114.205001) (width 0.25) (layer F.Cu) (net 2))
  (segment (start 130.304997 114.205001) (end 130.985001 114.205001) (width 0.25) (layer F.Cu) (net 2))
  (segment (start 130.985001 114.205001) (end 131.2 113.990002) (width 0.25) (layer F.Cu) (net 2))
  (segment (start 130.5 117.1) (end 131.35 116.25) (width 0.25) (layer F.Cu) (net 2))
  (segment (start 131.35 116.25) (end 131.35 115.55) (width 0.25) (layer F.Cu) (net 2))
  (segment (start 138 123.15) (end 136.9 123.15) (width 0.25) (layer F.Cu) (net 2))
  (segment (start 136.9 123.15) (end 135.9 122.15) (width 0.25) (layer F.Cu) (net 2))
  (segment (start 135.9 122.15) (end 135.9 122) (width 0.25) (layer F.Cu) (net 2))
  (segment (start 141 123.15) (end 142.1 123.15) (width 0.25) (layer F.Cu) (net 2))
  (segment (start 142.1 123.15) (end 143.1 122.15) (width 0.25) (layer F.Cu) (net 2))
  (segment (start 143.1 122.15) (end 143.1 122) (width 0.25) (layer F.Cu) (net 2))
  (segment (start 138 123.15) (end 141 123.15) (width 0.25) (layer F.Cu) (net 2))
  (segment (start 142.7 119.5) (end 142.7 121.6) (width 0.25) (layer F.Cu) (net 2))
  (segment (start 142.7 121.6) (end 143.1 122) (width 0.25) (layer F.Cu) (net 2))
  (segment (start 136.3 119.5) (end 136.3 121.6) (width 0.25) (layer F.Cu) (net 2))
  (segment (start 136.3 121.6) (end 135.9 122) (width 0.25) (layer F.Cu) (net 2))
  (segment (start 142.325 117.75) (end 142.7 118.125) (width 0.25) (layer F.Cu) (net 2))
  (segment (start 142.7 118.125) (end 142.7 119.5) (width 0.25) (layer F.Cu) (net 2))
  (segment (start 141.05 117.75) (end 142.325 117.75) (width 0.25) (layer F.Cu) (net 2))
  (segment (start 140.75 118.05) (end 141.05 117.75) (width 0.25) (layer F.Cu) (net 2))
  (segment (start 140.75 118.8) (end 140.75 118.05) (width 0.25) (layer F.Cu) (net 2))
  (segment (start 140.8 119.35) (end 140.8 118.85) (width 0.25) (layer F.Cu) (net 2))
  (segment (start 140.8 118.85) (end 140.75 118.8) (width 0.25) (layer F.Cu) (net 2))
  (segment (start 148.7 113.83) (end 148.7 112.56) (width 0.25) (layer F.Cu) (net 2))
  (segment (start 148.7 115.1) (end 148.7 113.83) (width 0.25) (layer F.Cu) (net 2))
  (segment (start 148.7 116.37) (end 148.7 115.1) (width 0.25) (layer F.Cu) (net 2))
  (segment (start 133.2 104.8) (end 133.535875 105.135875) (width 0.25) (layer F.Cu) (net 2))
  (segment (start 133.703894 105.135875) (end 134.502766 105.934747) (width 0.25) (layer F.Cu) (net 2))
  (segment (start 133.535875 105.135875) (end 133.703894 105.135875) (width 0.25) (layer F.Cu) (net 2))
  (segment (start 134.502766 105.934747) (end 135.033095 106.465076) (width 0.25) (layer F.Cu) (net 2))
  (segment (start 146.3 110.55) (end 145.481981 110.55) (width 0.25) (layer F.Cu) (net 2))
  (segment (start 145.481981 110.55) (end 144.366905 109.434924) (width 0.25) (layer F.Cu) (net 2))
  (segment (start 144.8 103.375) (end 143.214339 103.375) (width 0.25) (layer F.Cu) (net 2))
  (segment (start 143.214339 103.375) (end 142.245584 104.343755) (width 0.25) (layer F.Cu) (net 2))
  (segment (start 144.95 102.6) (end 144.95 103.225) (width 0.25) (layer F.Cu) (net 2))
  (segment (start 144.95 103.225) (end 144.8 103.375) (width 0.25) (layer F.Cu) (net 2))
  (segment (start 132.581862 98.55) (end 130.75192 98.55) (width 0.25) (layer F.Cu) (net 2))
  (segment (start 130.75192 98.55) (end 130.5507 98.75122) (width 0.25) (layer F.Cu) (net 2))
  (segment (start 130.5507 98.75122) (end 130.5507 99.4) (width 0.25) (layer F.Cu) (net 2))
  (segment (start 132.9 100.175) (end 132.9 98.868138) (width 0.25) (layer F.Cu) (net 2))
  (segment (start 132.9 98.868138) (end 132.581862 98.55) (width 0.25) (layer F.Cu) (net 2))
  (segment (start 133.7 100.35) (end 133.075 100.35) (width 0.25) (layer F.Cu) (net 2))
  (segment (start 133.075 100.35) (end 132.9 100.175) (width 0.25) (layer F.Cu) (net 2))
  (segment (start 133.7 100.35) (end 133.7 100.325) (width 0.25) (layer F.Cu) (net 2))
  (segment (start 133.7 100.325) (end 134.475 99.55) (width 0.25) (layer F.Cu) (net 2))
  (segment (start 134.475 99.55) (end 136.28 99.55) (width 0.25) (layer F.Cu) (net 2))
  (segment (start 136.28 99.55) (end 136.85 99.55) (width 0.25) (layer F.Cu) (net 2))
  (segment (start 138.2 119.35) (end 138.2 118.325) (width 0.25) (layer F.Cu) (net 3))
  (segment (start 138.2 118.325) (end 137.624989 117.749989) (width 0.25) (layer F.Cu) (net 3))
  (segment (start 137.624989 117.749989) (end 132.649989 117.749989) (width 0.25) (layer F.Cu) (net 3))
  (segment (start 132.649989 117.749989) (end 132 117.1) (width 0.25) (layer F.Cu) (net 3))
  (segment (start 130.4 115.55) (end 130.4 114.77) (width 0.25) (layer F.Cu) (net 3))
  (segment (start 130.4 114.77) (end 130.475001 114.694999) (width 0.25) (layer F.Cu) (net 3))
  (segment (start 130.475001 114.694999) (end 132.224999 114.694999) (width 0.25) (layer F.Cu) (net 3))
  (segment (start 132.224999 114.694999) (end 132.3 114.77) (width 0.25) (layer F.Cu) (net 3))
  (segment (start 132.3 114.77) (end 132.3 115.55) (width 0.25) (layer F.Cu) (net 3))
  (segment (start 132 117.1) (end 132.025 117.1) (width 0.25) (layer F.Cu) (net 3))
  (segment (start 132.025 117.1) (end 132.3 116.825) (width 0.25) (layer F.Cu) (net 3))
  (segment (start 132.3 116.825) (end 132.3 115.55) (width 0.25) (layer F.Cu) (net 3))
  (segment (start 133.7 98.85) (end 135.3 98.85) (width 0.25) (layer F.Cu) (net 4))
  (segment (start 135.3 98.85) (end 136 98.85) (width 0.25) (layer F.Cu) (net 4))
  (segment (start 136 98.85) (end 136.4 98.45) (width 0.25) (layer F.Cu) (net 4))
  (segment (start 136.4 98.45) (end 137.585 98.45) (width 0.25) (layer F.Cu) (net 4))
  (segment (start 137.8 98.665) (end 137.8 99.55) (width 0.25) (layer F.Cu) (net 4))
  (segment (start 137.585 98.45) (end 137.8 98.665) (width 0.25) (layer F.Cu) (net 4))
  (segment (start 147.45 101) (end 147.45 99.4007) (width 0.25) (layer F.Cu) (net 5))
  (segment (start 147.45 99.4007) (end 147.4493 99.4) (width 0.25) (layer F.Cu) (net 5))
  (segment (start 132.05 101) (end 132.05 99.4007) (width 0.25) (layer F.Cu) (net 6))
  (segment (start 132.05 99.4007) (end 132.0493 99.4) (width 0.25) (layer F.Cu) (net 6))
  (segment (start 132.05 110.2) (end 132.05 108.6007) (width 0.25) (layer F.Cu) (net 7))
  (segment (start 132.05 108.6007) (end 132.0493 108.6) (width 0.25) (layer F.Cu) (net 7))
  (segment (start 146.825 102.65) (end 146.25 102.65) (width 0.25) (layer F.Cu) (net 8))
  (segment (start 146.25 102.65) (end 146.2 102.6) (width 0.25) (layer F.Cu) (net 8))
  (segment (start 146.775 103.825) (end 146.775 102.7) (width 0.25) (layer B.Cu) (net 8))
  (segment (start 146.775 102.7) (end 146.825 102.65) (width 0.25) (layer B.Cu) (net 8))
  (via (at 146.825 102.65) (size 0.6) (drill 0.4) (layers F.Cu B.Cu) (net 8))
  (segment (start 147.55 104.6) (end 146.775 103.825) (width 0.25) (layer B.Cu) (net 8))
  (segment (start 147.55 109.125) (end 147.55 104.6) (width 0.25) (layer B.Cu) (net 8))
  (segment (start 146.75 109.925) (end 147.55 109.125) (width 0.25) (layer B.Cu) (net 8))
  (segment (start 146.35 109.925) (end 146.75 109.925) (width 0.25) (layer B.Cu) (net 8))
  (segment (start 144.775 111.5) (end 146.35 109.925) (width 0.25) (layer B.Cu) (net 8))
  (segment (start 144.7 112.56) (end 144.7 111.575) (width 0.25) (layer F.Cu) (net 8))
  (segment (start 144.7 111.575) (end 144.775 111.5) (width 0.25) (layer F.Cu) (net 8))
  (via (at 144.775 111.5) (size 0.6) (drill 0.4) (layers F.Cu B.Cu) (net 8))
  (segment (start 146.2 102.6) (end 146.2 103.25) (width 0.25) (layer F.Cu) (net 8))
  (segment (start 146.2 103.25) (end 145.55 103.9) (width 0.25) (layer F.Cu) (net 8))
  (segment (start 145.55 103.9) (end 143.396447 103.9) (width 0.25) (layer F.Cu) (net 8))
  (segment (start 143.396447 103.9) (end 142.599138 104.697309) (width 0.25) (layer F.Cu) (net 8))
  (segment (start 141.49 101.275) (end 141.49 102.270913) (width 0.25) (layer F.Cu) (net 9))
  (segment (start 141.49 102.270913) (end 140.831371 102.929542) (width 0.25) (layer F.Cu) (net 9))
  (segment (start 140.65 99.55) (end 140.65 100.435) (width 0.25) (layer F.Cu) (net 9))
  (segment (start 140.65 100.435) (end 141.49 101.275) (width 0.25) (layer F.Cu) (net 9))
  (segment (start 139.7 99.55) (end 139.7 100.125) (width 0.25) (layer F.Cu) (net 10))
  (segment (start 139.7 100.125) (end 138.1 101.725) (width 0.25) (layer F.Cu) (net 10))
  (segment (start 138.1 101.725) (end 138.1 102.460913) (width 0.25) (layer F.Cu) (net 10))
  (segment (start 138.1 102.460913) (end 138.568629 102.929542) (width 0.25) (layer F.Cu) (net 10))
  (segment (start 138.75 99.55) (end 138.75 100.225) (width 0.25) (layer F.Cu) (net 11))
  (segment (start 137.525 102.593019) (end 138.215076 103.283095) (width 0.25) (layer F.Cu) (net 11))
  (segment (start 138.75 100.225) (end 137.525 101.45) (width 0.25) (layer F.Cu) (net 11))
  (segment (start 137.525 101.45) (end 137.525 102.593019) (width 0.25) (layer F.Cu) (net 11))
  (segment (start 136.381372 112.4) (end 135.55 112.4) (width 0.2) (layer F.Cu) (net 12))
  (segment (start 135.317158 112.632842) (end 134 113.95) (width 0.2) (layer F.Cu) (net 12))
  (segment (start 135.55 112.4) (end 135.317158 112.632842) (width 0.2) (layer F.Cu) (net 12))
  (segment (start 137.154416 111.556245) (end 137.154416 111.626956) (width 0.2) (layer F.Cu) (net 12))
  (segment (start 137.154416 111.626956) (end 136.381372 112.4) (width 0.2) (layer F.Cu) (net 12))
  (segment (start 136.547056 112.8) (end 135.715685 112.8) (width 0.2) (layer F.Cu) (net 13))
  (segment (start 135.715685 112.8) (end 135.6 112.915685) (width 0.2) (layer F.Cu) (net 13))
  (segment (start 135.6 112.915685) (end 135.6 114.1) (width 0.2) (layer F.Cu) (net 13))
  (segment (start 137.507969 111.909798) (end 137.437258 111.909798) (width 0.2) (layer F.Cu) (net 13))
  (segment (start 137.437258 111.909798) (end 136.547056 112.8) (width 0.2) (layer F.Cu) (net 13))
  (segment (start 137.861522 112.263351) (end 138.391851 111.733022) (width 0.25) (layer F.Cu) (net 14))
  (segment (start 138.391851 111.733022) (end 138.710067 111.733022) (width 0.25) (layer F.Cu) (net 14))
  (segment (start 139.441647 112.464602) (end 139.441647 113.206647) (width 0.25) (layer F.Cu) (net 14))
  (segment (start 138.710067 111.733022) (end 139.441647 112.464602) (width 0.25) (layer F.Cu) (net 14))
  (segment (start 139.441647 113.206647) (end 143.875 117.64) (width 0.25) (layer F.Cu) (net 14))
  (segment (start 143.875 117.64) (end 144.7 117.64) (width 0.25) (layer F.Cu) (net 14))
  (segment (start 142.650315 114.125315) (end 142.025787 113.500787) (width 0.25) (layer F.Cu) (net 15))
  (segment (start 142.025787 113.500787) (end 141.3617 113.500787) (width 0.25) (layer F.Cu) (net 15))
  (segment (start 141.3617 113.500787) (end 140.831371 112.970458) (width 0.25) (layer F.Cu) (net 15))
  (segment (start 144.7 116.37) (end 143.875 116.37) (width 0.25) (layer F.Cu) (net 15))
  (segment (start 143.875 116.37) (end 142.650315 115.145315) (width 0.25) (layer F.Cu) (net 15))
  (segment (start 142.650315 115.145315) (end 142.650315 114.125315) (width 0.25) (layer F.Cu) (net 15))
  (segment (start 139.958353 111.508353) (end 141.501451 109.965255) (width 0.25) (layer F.Cu) (net 16))
  (segment (start 141.501451 109.965255) (end 142.775916 109.965255) (width 0.25) (layer F.Cu) (net 16))
  (segment (start 139.958353 112.921943) (end 139.958353 111.508353) (width 0.25) (layer F.Cu) (net 16))
  (segment (start 141.50608 114.46967) (end 139.958353 112.921943) (width 0.25) (layer F.Cu) (net 16))
  (segment (start 141.83033 114.46967) (end 141.50608 114.46967) (width 0.25) (layer F.Cu) (net 16))
  (segment (start 142.775916 109.965255) (end 143.306245 110.495584) (width 0.25) (layer F.Cu) (net 16))
  (segment (start 142.175 108.9) (end 142.417767 108.9) (width 0.25) (layer F.Cu) (net 17))
  (segment (start 142.417767 108.9) (end 143.659798 110.142031) (width 0.25) (layer F.Cu) (net 17))
  (segment (start 141.450001 108.175001) (end 142.175 108.9) (width 0.25) (layer F.Cu) (net 17))
  (segment (start 141.75 107.1) (end 141.450001 107.399999) (width 0.25) (layer F.Cu) (net 17))
  (segment (start 141.450001 107.399999) (end 141.450001 108.175001) (width 0.25) (layer F.Cu) (net 17))
  (segment (start 141.725 102.475) (end 141.725 107.075) (width 0.25) (layer B.Cu) (net 17))
  (segment (start 141.725 107.075) (end 141.75 107.1) (width 0.25) (layer B.Cu) (net 17))
  (via (at 141.75 107.1) (size 0.6) (drill 0.4) (layers F.Cu B.Cu) (net 17))
  (segment (start 143.975001 100.224999) (end 141.725 102.475) (width 0.25) (layer B.Cu) (net 17))
  (segment (start 144.7 99.925) (end 144.400001 100.224999) (width 0.25) (layer B.Cu) (net 17))
  (segment (start 144.400001 100.224999) (end 143.975001 100.224999) (width 0.25) (layer B.Cu) (net 17))
  (segment (start 145.95 101) (end 145.95 100.8) (width 0.25) (layer F.Cu) (net 17))
  (segment (start 145.95 100.8) (end 145.075 99.925) (width 0.25) (layer F.Cu) (net 17))
  (segment (start 145.075 99.925) (end 144.7 99.925) (width 0.25) (layer F.Cu) (net 17))
  (via (at 144.7 99.925) (size 0.6) (drill 0.4) (layers F.Cu B.Cu) (net 17))
  (segment (start 142.199544 108.097243) (end 142.22785 108.068937) (width 0.25) (layer B.Cu) (net 18))
  (segment (start 131.1 102.625) (end 136.572243 108.097243) (width 0.25) (layer B.Cu) (net 18))
  (segment (start 136.572243 108.097243) (end 142.199544 108.097243) (width 0.25) (layer B.Cu) (net 18))
  (segment (start 142.29381 108.068937) (end 142.22785 108.068937) (width 0.25) (layer F.Cu) (net 18))
  (via (at 142.22785 108.068937) (size 0.6) (drill 0.4) (layers F.Cu B.Cu) (net 18))
  (segment (start 144.013351 109.788478) (end 142.29381 108.068937) (width 0.25) (layer F.Cu) (net 18))
  (segment (start 131.1 102.625) (end 130.525 102.05) (width 0.25) (layer F.Cu) (net 18))
  (segment (start 130.525 102.05) (end 130.525 101.025) (width 0.25) (layer F.Cu) (net 18))
  (segment (start 130.525 101.025) (end 130.55 101) (width 0.25) (layer F.Cu) (net 18))
  (via (at 131.1 102.625) (size 0.6) (drill 0.4) (layers F.Cu B.Cu) (net 18))
  (segment (start 138.85 119.35) (end 138.85 118.3) (width 0.2) (layer F.Cu) (net 19))
  (segment (start 138.85 118.3) (end 138.975 118.175) (width 0.2) (layer F.Cu) (net 19))
  (segment (start 138.975 118.175) (end 138.975 117.832842) (width 0.2) (layer F.Cu) (net 19))
  (segment (start 138.975 117.832842) (end 138.392158 117.25) (width 0.2) (layer F.Cu) (net 19))
  (segment (start 138.392158 117.25) (end 135.8 117.25) (width 0.2) (layer F.Cu) (net 19))
  (segment (start 135.8 117.25) (end 134 115.45) (width 0.2) (layer F.Cu) (net 19))
  (segment (start 135.6 115.6) (end 137.2 115.6) (width 0.25) (layer F.Cu) (net 20))
  (segment (start 136.601484 116.821131) (end 136.656758 116.7864) (width 0.2) (layer F.Cu) (net 20))
  (segment (start 135.6 115.6) (end 135.6 116.484315) (width 0.2) (layer F.Cu) (net 20))
  (segment (start 135.6 116.484315) (end 135.965685 116.85) (width 0.2) (layer F.Cu) (net 20))
  (segment (start 137.256758 116.330564) (end 137.302917 116.376723) (width 0.2) (layer F.Cu) (net 20))
  (segment (start 135.965685 116.85) (end 136.475 116.85) (width 0.2) (layer F.Cu) (net 20))
  (segment (start 137.359209 116.493613) (end 137.373826 116.623351) (width 0.2) (layer F.Cu) (net 20))
  (segment (start 137.058036 116.266963) (end 137.075 116.266963) (width 0.2) (layer F.Cu) (net 20))
  (segment (start 136.475 116.85) (end 136.539868 116.842692) (width 0.2) (layer F.Cu) (net 20))
  (segment (start 136.539868 116.842692) (end 136.601484 116.821131) (width 0.2) (layer F.Cu) (net 20))
  (segment (start 136.795387 116.431997) (end 136.830118 116.376723) (width 0.2) (layer F.Cu) (net 20))
  (segment (start 136.656758 116.7864) (end 136.702917 116.740241) (width 0.2) (layer F.Cu) (net 20))
  (segment (start 138.557842 116.85) (end 139.375 117.667158) (width 0.2) (layer F.Cu) (net 20))
  (segment (start 136.702917 116.740241) (end 136.737648 116.684967) (width 0.2) (layer F.Cu) (net 20))
  (segment (start 136.876277 116.330564) (end 136.931551 116.295833) (width 0.2) (layer F.Cu) (net 20))
  (segment (start 137.201484 116.295833) (end 137.256758 116.330564) (width 0.2) (layer F.Cu) (net 20))
  (segment (start 136.737648 116.684967) (end 136.759209 116.623351) (width 0.2) (layer F.Cu) (net 20))
  (segment (start 136.759209 116.623351) (end 136.773826 116.493613) (width 0.2) (layer F.Cu) (net 20))
  (segment (start 136.773826 116.493613) (end 136.795387 116.431997) (width 0.2) (layer F.Cu) (net 20))
  (segment (start 137.658036 116.85) (end 138.557842 116.85) (width 0.2) (layer F.Cu) (net 20))
  (segment (start 137.531551 116.821131) (end 137.593167 116.842692) (width 0.2) (layer F.Cu) (net 20))
  (segment (start 136.931551 116.295833) (end 136.993167 116.274272) (width 0.2) (layer F.Cu) (net 20))
  (segment (start 137.593167 116.842692) (end 137.658036 116.85) (width 0.2) (layer F.Cu) (net 20))
  (segment (start 139.5 118.3) (end 139.5 119.35) (width 0.2) (layer F.Cu) (net 20))
  (segment (start 136.830118 116.376723) (end 136.876277 116.330564) (width 0.2) (layer F.Cu) (net 20))
  (segment (start 137.075 116.266963) (end 137.139868 116.274272) (width 0.2) (layer F.Cu) (net 20))
  (segment (start 136.993167 116.274272) (end 137.058036 116.266963) (width 0.2) (layer F.Cu) (net 20))
  (segment (start 137.373826 116.623351) (end 137.395387 116.684967) (width 0.2) (layer F.Cu) (net 20))
  (segment (start 137.139868 116.274272) (end 137.201484 116.295833) (width 0.2) (layer F.Cu) (net 20))
  (segment (start 137.302917 116.376723) (end 137.337648 116.431997) (width 0.2) (layer F.Cu) (net 20))
  (segment (start 137.395387 116.684967) (end 137.430118 116.740241) (width 0.2) (layer F.Cu) (net 20))
  (segment (start 137.337648 116.431997) (end 137.359209 116.493613) (width 0.2) (layer F.Cu) (net 20))
  (segment (start 137.430118 116.740241) (end 137.476277 116.7864) (width 0.2) (layer F.Cu) (net 20))
  (segment (start 137.476277 116.7864) (end 137.531551 116.821131) (width 0.2) (layer F.Cu) (net 20))
  (segment (start 139.375 117.667158) (end 139.375 118.175) (width 0.2) (layer F.Cu) (net 20))
  (segment (start 139.375 118.175) (end 139.5 118.3) (width 0.2) (layer F.Cu) (net 20))
  (segment (start 142.55 99.55) (end 142.55 100.2) (width 0.25) (layer F.Cu) (net 21))
  (segment (start 142.55 100.2) (end 143.35 101) (width 0.25) (layer F.Cu) (net 21))
  (segment (start 135.796436 111.500011) (end 136.447309 110.849138) (width 0.25) (layer F.Cu) (net 22))
  (segment (start 133.711411 111.975) (end 134.1864 111.500011) (width 0.25) (layer F.Cu) (net 22))
  (segment (start 133.45 111.975) (end 133.711411 111.975) (width 0.25) (layer F.Cu) (net 22))
  (segment (start 134.1864 111.500011) (end 135.796436 111.500011) (width 0.25) (layer F.Cu) (net 22))
  (segment (start 133.45 111.975) (end 133.875 111.975) (width 0.25) (layer B.Cu) (net 22))
  (segment (start 133.875 111.975) (end 134.25 112.35) (width 0.25) (layer B.Cu) (net 22))
  (segment (start 134.25 112.35) (end 134.25 117.1) (width 0.25) (layer B.Cu) (net 22))
  (segment (start 134.25 117.1) (end 133.19 118.16) (width 0.25) (layer B.Cu) (net 22))
  (segment (start 133.19 118.16) (end 133.19 119.81) (width 0.25) (layer B.Cu) (net 22))
  (via (at 133.45 111.975) (size 0.6) (drill 0.4) (layers F.Cu B.Cu) (net 22))
  (segment (start 134.499958 111.950022) (end 133.62498 112.825) (width 0.25) (layer F.Cu) (net 23))
  (segment (start 136.800862 111.202691) (end 136.053531 111.950022) (width 0.25) (layer F.Cu) (net 23))
  (segment (start 136.053531 111.950022) (end 134.499958 111.950022) (width 0.25) (layer F.Cu) (net 23))
  (segment (start 130.65 119.81) (end 133.62498 116.83502) (width 0.25) (layer B.Cu) (net 23))
  (segment (start 133.62498 116.83502) (end 133.62498 112.825) (width 0.25) (layer B.Cu) (net 23))
  (via (at 133.62498 112.825) (size 0.6) (drill 0.4) (layers F.Cu B.Cu) (net 23))
  (segment (start 133.75148 111.15148) (end 133.321776 111.15148) (width 0.25) (layer B.Cu) (net 24))
  (segment (start 134.05148 111.15148) (end 133.75148 111.15148) (width 0.25) (layer B.Cu) (net 24))
  (segment (start 136.45 113.55) (end 134.05148 111.15148) (width 0.25) (layer B.Cu) (net 24))
  (segment (start 135.539339 111.05) (end 133.423256 111.05) (width 0.25) (layer F.Cu) (net 24))
  (segment (start 136.093755 110.495584) (end 135.539339 111.05) (width 0.25) (layer F.Cu) (net 24))
  (via (at 133.321776 111.15148) (size 0.6) (drill 0.4) (layers F.Cu B.Cu) (net 24))
  (segment (start 133.423256 111.05) (end 133.321776 111.15148) (width 0.25) (layer F.Cu) (net 24))
  (segment (start 137.2 114.1) (end 137 114.1) (width 0.25) (layer F.Cu) (net 24))
  (segment (start 137 114.1) (end 136.45 113.55) (width 0.25) (layer F.Cu) (net 24))
  (via (at 136.45 113.55) (size 0.6) (drill 0.4) (layers F.Cu B.Cu) (net 24))

  (zone (net 2) (net_name GND) (layer F.Cu) (tstamp 0) (hatch edge 0.508)
    (connect_pads (clearance 0.3))
    (min_thickness 0.25)
    (fill (arc_segments 16) (thermal_gap 0.4) (thermal_bridge_width 0.4))
    (polygon
      (pts
        (xy 129 98) (xy 150 98) (xy 150 124) (xy 129 124)
      )
    )
  )
  (zone (net 2) (net_name GND) (layer B.Cu) (tstamp 0) (hatch edge 0.508)
    (connect_pads (clearance 0.3))
    (min_thickness 0.25)
    (fill (arc_segments 16) (thermal_gap 0.4) (thermal_bridge_width 0.4))
    (polygon
      (pts
        (xy 129 98) (xy 150 98) (xy 150 124) (xy 129 124)
      )
    )
  )
)
