EESchema Schematic File Version 2
LIBS:power
LIBS:device
LIBS:transistors
LIBS:conn
LIBS:linear
LIBS:regul
LIBS:74xx
LIBS:cmos4000
LIBS:adc-dac
LIBS:memory
LIBS:xilinx
LIBS:microcontrollers
LIBS:dsp
LIBS:microchip
LIBS:analog_switches
LIBS:motorola
LIBS:texas
LIBS:intel
LIBS:audio
LIBS:interface
LIBS:digital-audio
LIBS:philips
LIBS:display
LIBS:cypress
LIBS:siliconi
LIBS:opto
LIBS:atmel
LIBS:contrib
LIBS:valves
LIBS:VA
LIBS:AtmelUSB
LIBS:IRDA-cache
EELAYER 25 0
EELAYER END
$Descr USLetter 11000 8500
encoding utf-8
Sheet 1 1
Title "InfraRed USB communicator"
Date "2018-07-24"
Rev "0.2"
Comp "Vlad A <elf128@gmail.com>"
Comment1 ""
Comment2 ""
Comment3 ""
Comment4 ""
$EndDescr
$Comp
L STM32F103Cx IC1
U 1 1 5AC03715
P 4000 3950
F 0 "IC1" H 3200 6080 50  0000 L BNN
F 1 "STM32F103Cx" H 4300 6100 50  0000 L BNN
F 2 "Housings_QFP:LQFP-48_7x7mm_Pitch0.5mm" H 4550 2050 50  0001 C CNN
F 3 "" H 4000 3950 60  0000 C CNN
	1    4000 3950
	1    0    0    -1  
$EndComp
Text Label 6250 3500 0    39   ~ 0
SWDIO
Text Label 6250 3600 0    39   ~ 0
SWCLK
$Comp
L CONN_02X05 P1
U 1 1 5AC05AB1
P 9200 1250
F 0 "P1" H 9200 1550 50  0000 C CNN
F 1 "CONN_02X05" H 9200 950 50  0000 C CNN
F 2 "OnwardLib:SWD_SMD" H 9200 50  50  0001 C CNN
F 3 "" H 9200 50  50  0000 C CNN
	1    9200 1250
	1    0    0    -1  
$EndComp
Text Label 9750 1050 0    39   ~ 0
SWDIO
Text Label 9750 1150 0    39   ~ 0
SWCLK
Text Label 9750 1450 0    39   ~ 0
~Reset~
Text Label 1600 2350 2    39   ~ 0
~Reset~
Text Label 1600 2500 2    39   ~ 0
Boot0
$Comp
L TFBS4650 U2
U 1 1 5AC06024
P 8700 4650
F 0 "U2" H 8500 5050 50  0000 L CNN
F 1 "S212S01" H 8400 4150 50  0000 L CNN
F 2 "Socket_Strips:Socket_Strip_Straight_1x07_Pitch1.27mm" H 8500 4450 50  0001 L CIN
F 3 "" H 8665 4650 50  0000 L CNN
	1    8700 4650
	1    0    0    -1  
$EndComp
Text Label 7750 4750 2    39   ~ 0
Transmit
Text Label 7750 4950 2    39   ~ 0
Receive
$Comp
L +3.3V #PWR18
U 1 1 5AC06EBF
P 10050 4000
F 0 "#PWR18" H 10050 3850 50  0001 C CNN
F 1 "+3.3V" H 10050 4140 50  0000 C CNN
F 2 "" H 10050 4000 50  0000 C CNN
F 3 "" H 10050 4000 50  0000 C CNN
	1    10050 4000
	1    0    0    -1  
$EndComp
$Comp
L R R9
U 1 1 5AC0722E
P 10050 4550
F 0 "R9" V 10130 4550 50  0000 C CNN
F 1 "22" V 10050 4550 50  0000 C CNN
F 2 "Footprints:R_0603" V 9980 4550 50  0001 C CNN
F 3 "" H 10050 4550 50  0000 C CNN
	1    10050 4550
	-1   0    0    1   
$EndComp
$Comp
L R R8
U 1 1 5AC0737B
P 9800 4350
F 0 "R8" V 9880 4350 50  0000 C CNN
F 1 "47" V 9800 4350 50  0000 C CNN
F 2 "Footprints:R_0603" V 9730 4350 50  0001 C CNN
F 3 "" H 9800 4350 50  0000 C CNN
	1    9800 4350
	0    1    1    0   
$EndComp
$Comp
L C C8
U 1 1 5AC073DB
P 10050 4950
F 0 "C8" H 10075 5050 50  0000 L CNN
F 1 "100nF" H 10075 4850 50  0000 L CNN
F 2 "Footprints:C_0603" H 10088 4800 50  0001 C CNN
F 3 "" H 10050 4950 50  0000 C CNN
	1    10050 4950
	1    0    0    -1  
$EndComp
$Comp
L GND #PWR19
U 1 1 5AC074F7
P 10050 5300
F 0 "#PWR19" H 10050 5050 50  0001 C CNN
F 1 "GND" H 10050 5150 50  0000 C CNN
F 2 "" H 10050 5300 50  0000 C CNN
F 3 "" H 10050 5300 50  0000 C CNN
	1    10050 5300
	1    0    0    -1  
$EndComp
Text Label 7750 4550 2    39   ~ 0
Shutdown
$Comp
L +3.3V #PWR12
U 1 1 5AE45D17
P 8650 900
F 0 "#PWR12" H 8650 750 50  0001 C CNN
F 1 "+3.3V" H 8650 1040 50  0000 C CNN
F 2 "" H 8650 900 50  0000 C CNN
F 3 "" H 8650 900 50  0000 C CNN
	1    8650 900 
	1    0    0    -1  
$EndComp
$Comp
L GND #PWR13
U 1 1 5AE45D37
P 8650 1600
F 0 "#PWR13" H 8650 1350 50  0001 C CNN
F 1 "GND" H 8650 1450 50  0000 C CNN
F 2 "" H 8650 1600 50  0000 C CNN
F 3 "" H 8650 1600 50  0000 C CNN
	1    8650 1600
	1    0    0    -1  
$EndComp
NoConn ~ 9450 1250
NoConn ~ 9450 1350
Text Label 6250 2400 0    39   ~ 0
Transmit
Text Label 6250 2500 0    39   ~ 0
Receive
Text Label 6250 2600 0    39   ~ 0
Shutdown
Text Label 6250 3300 0    39   ~ 0
cpu_D-
Text Label 6250 3400 0    39   ~ 0
cpu_D+
$Comp
L GND #PWR5
U 1 1 5AE463C7
P 3350 6250
F 0 "#PWR5" H 3350 6000 50  0001 C CNN
F 1 "GND" H 3350 6100 50  0000 C CNN
F 2 "" H 3350 6250 50  0000 C CNN
F 3 "" H 3350 6250 50  0000 C CNN
	1    3350 6250
	1    0    0    -1  
$EndComp
$Comp
L +3.3V #PWR6
U 1 1 5AE465AD
P 3600 1325
F 0 "#PWR6" H 3600 1175 50  0001 C CNN
F 1 "+3.3V" H 3600 1465 50  0000 C CNN
F 2 "" H 3600 1325 50  0000 C CNN
F 3 "" H 3600 1325 50  0000 C CNN
	1    3600 1325
	1    0    0    -1  
$EndComp
$Comp
L +3.3V #PWR3
U 1 1 5AE46809
P 1800 1725
F 0 "#PWR3" H 1800 1575 50  0001 C CNN
F 1 "+3.3V" H 1800 1865 50  0000 C CNN
F 2 "" H 1800 1725 50  0000 C CNN
F 3 "" H 1800 1725 50  0000 C CNN
	1    1800 1725
	1    0    0    -1  
$EndComp
$Comp
L R R1
U 1 1 5AE46822
P 1800 2025
F 0 "R1" V 1880 2025 50  0000 C CNN
F 1 "10K" V 1800 2025 50  0000 C CNN
F 2 "Footprints:R_0603" V 1730 2025 50  0001 C CNN
F 3 "" H 1800 2025 50  0000 C CNN
	1    1800 2025
	1    0    0    -1  
$EndComp
Text Label 6250 3100 0    39   ~ 0
uart1_TX
Text Label 6250 3200 0    39   ~ 0
uart1_RX
Text Label 6250 4750 0    39   ~ 0
LED_R
Text Label 6250 4850 0    39   ~ 0
LED_G
$Comp
L APE8865U5-33-HF-3 U1
U 1 1 5AE46F30
P 8675 3000
F 0 "U1" H 8375 3250 50  0000 C CNN
F 1 "APE8865U5-33-HF-3" H 8675 3200 50  0000 C CNN
F 2 "TO_SOT_Packages_SMD:SOT-23-5" H 8675 3100 50  0001 C CIN
F 3 "" H 8675 3000 50  0000 C CNN
	1    8675 3000
	1    0    0    -1  
$EndComp
$Comp
L C_Small C1
U 1 1 5AE4702B
P 1050 7050
F 0 "C1" H 1060 7120 50  0000 L CNN
F 1 "100nF" H 1060 6970 50  0000 L CNN
F 2 "Footprints:C_0603" H 1050 7050 50  0001 C CNN
F 3 "" H 1050 7050 50  0000 C CNN
	1    1050 7050
	1    0    0    -1  
$EndComp
$Comp
L C_Small C2
U 1 1 5AE470AA
P 1400 7050
F 0 "C2" H 1410 7120 50  0000 L CNN
F 1 "100nF" H 1410 6970 50  0000 L CNN
F 2 "Footprints:C_0603" H 1400 7050 50  0001 C CNN
F 3 "" H 1400 7050 50  0000 C CNN
	1    1400 7050
	1    0    0    -1  
$EndComp
$Comp
L C_Small C3
U 1 1 5AE4710E
P 1775 7050
F 0 "C3" H 1785 7120 50  0000 L CNN
F 1 "100nF" H 1785 6970 50  0000 L CNN
F 2 "Footprints:C_0603" H 1775 7050 50  0001 C CNN
F 3 "" H 1775 7050 50  0000 C CNN
	1    1775 7050
	1    0    0    -1  
$EndComp
$Comp
L C_Small C4
U 1 1 5AE4715B
P 2150 7050
F 0 "C4" H 2160 7120 50  0000 L CNN
F 1 "100nF" H 2160 6970 50  0000 L CNN
F 2 "Footprints:C_0603" H 2150 7050 50  0001 C CNN
F 3 "" H 2150 7050 50  0000 C CNN
	1    2150 7050
	1    0    0    -1  
$EndComp
$Comp
L C_Small C5
U 1 1 5AE471AB
P 2525 7050
F 0 "C5" H 2535 7120 50  0000 L CNN
F 1 "100nF" H 2535 6970 50  0000 L CNN
F 2 "Footprints:C_0603" H 2525 7050 50  0001 C CNN
F 3 "" H 2525 7050 50  0000 C CNN
	1    2525 7050
	1    0    0    -1  
$EndComp
$Comp
L +3.3V #PWR1
U 1 1 5AE474B8
P 1050 6600
F 0 "#PWR1" H 1050 6450 50  0001 C CNN
F 1 "+3.3V" H 1050 6740 50  0000 C CNN
F 2 "" H 1050 6600 50  0000 C CNN
F 3 "" H 1050 6600 50  0000 C CNN
	1    1050 6600
	1    0    0    -1  
$EndComp
Wire Wire Line
	10050 4700 10050 4800
Wire Wire Line
	9450 4750 10050 4750
Connection ~ 10050 4750
Wire Wire Line
	10050 5200 9750 5200
Wire Wire Line
	9750 5200 9750 4950
Wire Wire Line
	9750 4950 9450 4950
Wire Wire Line
	10050 5100 10050 5300
Wire Wire Line
	9950 4350 10050 4350
Wire Wire Line
	10050 4000 10050 4400
Wire Wire Line
	9450 4350 9650 4350
Connection ~ 10050 4350
Connection ~ 10050 5200
Wire Wire Line
	7750 4750 7900 4750
Wire Wire Line
	7750 4950 7900 4950
Wire Wire Line
	6250 3500 5950 3500
Wire Wire Line
	6250 3600 5950 3600
Wire Wire Line
	7750 4550 7900 4550
Wire Wire Line
	8950 1150 8650 1150
Wire Wire Line
	8650 1150 8650 1600
Wire Wire Line
	8950 1250 8650 1250
Connection ~ 8650 1250
Wire Wire Line
	8950 1350 8650 1350
Connection ~ 8650 1350
Wire Wire Line
	8950 1450 8650 1450
Connection ~ 8650 1450
Wire Wire Line
	8650 1050 8950 1050
Wire Wire Line
	8650 900  8650 1050
Wire Wire Line
	9450 1050 9750 1050
Wire Wire Line
	9450 1150 9750 1150
Wire Wire Line
	9750 1450 9450 1450
Wire Wire Line
	6250 3400 5950 3400
Wire Wire Line
	6250 3300 5950 3300
Wire Wire Line
	6250 2500 5950 2500
Wire Wire Line
	6250 2400 5950 2400
Wire Wire Line
	6250 2600 5950 2600
Wire Wire Line
	3350 6000 3350 6250
Wire Wire Line
	3450 6000 3450 6150
Wire Wire Line
	3350 6150 3650 6150
Connection ~ 3350 6150
Wire Wire Line
	3550 6150 3550 6000
Connection ~ 3450 6150
Wire Wire Line
	3650 6150 3650 6000
Connection ~ 3550 6150
Wire Wire Line
	3600 1325 3600 1650
Wire Wire Line
	3600 1425 4150 1425
Wire Wire Line
	3700 1425 3700 1650
Connection ~ 3600 1425
Wire Wire Line
	3800 1425 3800 1650
Connection ~ 3700 1425
Wire Wire Line
	3900 1425 3900 1650
Connection ~ 3800 1425
Wire Wire Line
	4150 1425 4150 1650
Connection ~ 3900 1425
Wire Wire Line
	1600 2350 2300 2350
Wire Wire Line
	1600 2500 2300 2500
Wire Wire Line
	1800 1725 1800 1875
Wire Wire Line
	1800 2175 1800 2350
Connection ~ 1800 2350
Wire Wire Line
	6250 3100 5950 3100
Wire Wire Line
	6250 3200 5950 3200
Wire Wire Line
	6250 4750 5950 4750
Wire Wire Line
	5950 4850 6250 4850
Wire Wire Line
	2525 7150 2525 7300
Wire Wire Line
	2525 7300 1050 7300
Wire Wire Line
	1050 7150 1050 7475
Wire Wire Line
	1400 7150 1400 7300
Connection ~ 1400 7300
Wire Wire Line
	1775 7150 1775 7300
Connection ~ 1775 7300
Wire Wire Line
	2150 7150 2150 7300
Connection ~ 2150 7300
Wire Wire Line
	1050 6600 1050 6950
Wire Wire Line
	1050 6725 2525 6725
Wire Wire Line
	2525 6725 2525 6950
Wire Wire Line
	2150 6950 2150 6725
Connection ~ 2150 6725
Wire Wire Line
	1775 6950 1775 6725
Connection ~ 1775 6725
Wire Wire Line
	1400 6950 1400 6725
Connection ~ 1400 6725
Connection ~ 1050 6725
$Comp
L GND #PWR2
U 1 1 5AE47757
P 1050 7475
F 0 "#PWR2" H 1050 7225 50  0001 C CNN
F 1 "GND" H 1050 7325 50  0000 C CNN
F 2 "" H 1050 7475 50  0000 C CNN
F 3 "" H 1050 7475 50  0000 C CNN
	1    1050 7475
	1    0    0    -1  
$EndComp
Connection ~ 1050 7300
$Comp
L GND #PWR14
U 1 1 5AE47BB6
P 8675 3450
F 0 "#PWR14" H 8675 3200 50  0001 C CNN
F 1 "GND" H 8675 3300 50  0000 C CNN
F 2 "" H 8675 3450 50  0000 C CNN
F 3 "" H 8675 3450 50  0000 C CNN
	1    8675 3450
	1    0    0    -1  
$EndComp
$Comp
L +3.3V #PWR17
U 1 1 5AE47BE8
P 9700 2675
F 0 "#PWR17" H 9700 2525 50  0001 C CNN
F 1 "+3.3V" H 9700 2815 50  0000 C CNN
F 2 "" H 9700 2675 50  0000 C CNN
F 3 "" H 9700 2675 50  0000 C CNN
	1    9700 2675
	1    0    0    -1  
$EndComp
Wire Wire Line
	9125 2950 9700 2950
Wire Wire Line
	9700 2675 9700 3025
Wire Wire Line
	8675 3300 8675 3450
$Comp
L C C7
U 1 1 5AE47D79
P 9700 3175
F 0 "C7" H 9725 3275 50  0000 L CNN
F 1 "10uF" H 9725 3075 50  0000 L CNN
F 2 "Footprints:C_0603" H 9738 3025 50  0001 C CNN
F 3 "" H 9700 3175 50  0000 C CNN
	1    9700 3175
	1    0    0    -1  
$EndComp
Connection ~ 9700 2950
Wire Wire Line
	9700 3425 9700 3325
Wire Wire Line
	7950 3425 9700 3425
Connection ~ 8675 3425
$Comp
L C C6
U 1 1 5AE47EBB
P 7950 3175
F 0 "C6" H 7975 3275 50  0000 L CNN
F 1 "10uF" H 7975 3075 50  0000 L CNN
F 2 "Footprints:C_0603" H 7988 3025 50  0001 C CNN
F 3 "" H 7950 3175 50  0000 C CNN
	1    7950 3175
	1    0    0    -1  
$EndComp
Wire Wire Line
	7950 3325 7950 3425
$Comp
L +5V #PWR11
U 1 1 5AE47FAF
P 7950 2675
F 0 "#PWR11" H 7950 2525 50  0001 C CNN
F 1 "+5V" H 7950 2815 50  0000 C CNN
F 2 "" H 7950 2675 50  0000 C CNN
F 3 "" H 7950 2675 50  0000 C CNN
	1    7950 2675
	1    0    0    -1  
$EndComp
Wire Wire Line
	8225 2950 7950 2950
Wire Wire Line
	7950 2675 7950 3025
Connection ~ 7950 2950
Wire Wire Line
	8225 3100 8150 3100
Wire Wire Line
	8150 3100 8150 2950
Connection ~ 8150 2950
NoConn ~ 9125 3100
$Comp
L uUSB J1
U 1 1 5AE482D7
P 9350 6225
F 0 "J1" H 9275 6475 60  0000 C CNN
F 1 "uUSB" H 9300 5875 60  0001 C CNN
F 2 "Footprints:USB_Micro-B" H 9350 6225 60  0001 C CNN
F 3 "" H 9350 6225 60  0000 C CNN
F 4 "VCC" H 9675 6475 50  0001 C CNN "VCC"
F 5 "D+" H 9650 6375 50  0001 C CNN "Data+"
F 6 "D-" H 9650 6275 50  0001 C CNN "Data-"
F 7 "GND" H 9675 6025 50  0001 C CNN "Ground"
	1    9350 6225
	-1   0    0    -1  
$EndComp
$Comp
L GND #PWR15
U 1 1 5AE48416
P 8800 6575
F 0 "#PWR15" H 8800 6325 50  0001 C CNN
F 1 "GND" H 8800 6425 50  0000 C CNN
F 2 "" H 8800 6575 50  0000 C CNN
F 3 "" H 8800 6575 50  0000 C CNN
	1    8800 6575
	1    0    0    -1  
$EndComp
Text Label 7650 6175 2    39   ~ 0
cpu_D+
Text Label 7650 6075 2    39   ~ 0
cpu_D-
$Comp
L R R7
U 1 1 5AE484D5
P 8300 6075
F 0 "R7" V 8380 6075 50  0000 C CNN
F 1 "22" V 8300 6075 50  0000 C CNN
F 2 "Footprints:R_0603" V 8230 6075 50  0001 C CNN
F 3 "" H 8300 6075 50  0000 C CNN
	1    8300 6075
	0    -1   -1   0   
$EndComp
$Comp
L R R6
U 1 1 5AE48536
P 8075 6175
F 0 "R6" V 7975 6175 50  0000 C CNN
F 1 "22" V 8075 6175 50  0000 C CNN
F 2 "Footprints:R_0603" V 8005 6175 50  0001 C CNN
F 3 "" H 8075 6175 50  0000 C CNN
	1    8075 6175
	0    -1   -1   0   
$EndComp
$Comp
L +5V #PWR16
U 1 1 5AE4866A
P 8825 5850
F 0 "#PWR16" H 8825 5700 50  0001 C CNN
F 1 "+5V" H 8825 5990 50  0000 C CNN
F 2 "" H 8825 5850 50  0000 C CNN
F 3 "" H 8825 5850 50  0000 C CNN
	1    8825 5850
	1    0    0    -1  
$EndComp
Wire Wire Line
	8150 6075 7650 6075
Wire Wire Line
	7925 6175 7650 6175
Text Label 8975 6075 2    39   ~ 0
con_D-
Wire Wire Line
	8225 6175 9150 6175
Text Label 8975 6175 2    39   ~ 0
con_D+
Wire Wire Line
	8450 6075 9150 6075
Wire Wire Line
	9150 5975 8825 5975
Wire Wire Line
	8825 5975 8825 5850
Wire Wire Line
	9150 6375 8800 6375
Wire Wire Line
	8800 6375 8800 6575
Wire Wire Line
	9150 6475 8800 6475
Connection ~ 8800 6475
$Comp
L R R2
U 1 1 5AE491B2
P 1800 2825
F 0 "R2" V 1880 2825 50  0000 C CNN
F 1 "10K" V 1800 2825 50  0000 C CNN
F 2 "Footprints:R_0603" V 1730 2825 50  0001 C CNN
F 3 "" H 1800 2825 50  0000 C CNN
	1    1800 2825
	1    0    0    -1  
$EndComp
Wire Wire Line
	1800 2500 1800 2675
Connection ~ 1800 2500
$Comp
L GND #PWR4
U 1 1 5AE49365
P 1800 3150
F 0 "#PWR4" H 1800 2900 50  0001 C CNN
F 1 "GND" H 1800 3000 50  0000 C CNN
F 2 "" H 1800 3150 50  0000 C CNN
F 3 "" H 1800 3150 50  0000 C CNN
	1    1800 3150
	1    0    0    -1  
$EndComp
Wire Wire Line
	1800 3150 1800 2975
$Comp
L LED D3
U 1 1 5AE54975
P 5575 7300
F 0 "D3" H 5575 7400 50  0000 C CNN
F 1 "Orange" H 5575 7200 50  0000 C CNN
F 2 "Footprints:LED_0603" H 5575 7300 50  0001 C CNN
F 3 "" H 5575 7300 50  0000 C CNN
	1    5575 7300
	0    -1   -1   0   
$EndComp
$Comp
L LED D2
U 1 1 5AE54A86
P 5225 7300
F 0 "D2" H 5225 7400 50  0000 C CNN
F 1 "Green" H 5225 7200 50  0000 C CNN
F 2 "Footprints:LED_0603" H 5225 7300 50  0001 C CNN
F 3 "" H 5225 7300 50  0000 C CNN
	1    5225 7300
	0    -1   -1   0   
$EndComp
$Comp
L LED D1
U 1 1 5AE54AEF
P 4875 7300
F 0 "D1" H 4875 7400 50  0000 C CNN
F 1 "Red" H 4875 7200 50  0000 C CNN
F 2 "Footprints:LED_0603" H 4875 7300 50  0001 C CNN
F 3 "" H 4875 7300 50  0000 C CNN
	1    4875 7300
	0    -1   -1   0   
$EndComp
$Comp
L GND #PWR7
U 1 1 5AE54B41
P 4875 7625
F 0 "#PWR7" H 4875 7375 50  0001 C CNN
F 1 "GND" H 4875 7475 50  0000 C CNN
F 2 "" H 4875 7625 50  0000 C CNN
F 3 "" H 4875 7625 50  0000 C CNN
	1    4875 7625
	1    0    0    -1  
$EndComp
$Comp
L R R3
U 1 1 5AE54BAD
P 4875 6825
F 0 "R3" V 4955 6825 50  0000 C CNN
F 1 "150" V 4875 6825 50  0000 C CNN
F 2 "Footprints:R_0603" V 4805 6825 50  0001 C CNN
F 3 "" H 4875 6825 50  0000 C CNN
	1    4875 6825
	1    0    0    -1  
$EndComp
$Comp
L R R4
U 1 1 5AE54C41
P 5225 6825
F 0 "R4" V 5305 6825 50  0000 C CNN
F 1 "150" V 5225 6825 50  0000 C CNN
F 2 "Footprints:R_0603" V 5155 6825 50  0001 C CNN
F 3 "" H 5225 6825 50  0000 C CNN
	1    5225 6825
	1    0    0    -1  
$EndComp
$Comp
L R R5
U 1 1 5AE54CBF
P 5575 6825
F 0 "R5" V 5655 6825 50  0000 C CNN
F 1 "150" V 5575 6825 50  0000 C CNN
F 2 "Footprints:R_0603" V 5505 6825 50  0001 C CNN
F 3 "" H 5575 6825 50  0000 C CNN
	1    5575 6825
	1    0    0    -1  
$EndComp
Wire Wire Line
	4875 7500 4875 7625
Wire Wire Line
	5225 7500 5225 7600
Wire Wire Line
	4875 7600 5575 7600
Connection ~ 4875 7600
Wire Wire Line
	5575 7600 5575 7500
Connection ~ 5225 7600
Wire Wire Line
	4875 6975 4875 7100
Wire Wire Line
	5225 6975 5225 7100
Wire Wire Line
	5575 6975 5575 7100
$Comp
L +3.3V #PWR8
U 1 1 5AE552E7
P 5575 6600
F 0 "#PWR8" H 5575 6450 50  0001 C CNN
F 1 "+3.3V" H 5575 6740 50  0000 C CNN
F 2 "" H 5575 6600 50  0000 C CNN
F 3 "" H 5575 6600 50  0000 C CNN
	1    5575 6600
	1    0    0    -1  
$EndComp
Text Label 4875 6600 1    39   ~ 0
LED_R
Text Label 5225 6600 1    39   ~ 0
LED_G
Wire Wire Line
	5575 6600 5575 6675
Wire Wire Line
	5225 6600 5225 6675
Wire Wire Line
	4875 6600 4875 6675
Text Label 7125 1150 2    39   ~ 0
uart1_TX
Text Label 7125 1250 2    39   ~ 0
uart1_RX
$Comp
L CONN_01X04 P2
U 1 1 5AE79A5F
P 7525 1200
F 0 "P2" H 7525 1450 50  0000 C CNN
F 1 "CONN_01X04" V 7625 1200 50  0000 C CNN
F 2 "Pin_Headers:Pin_Header_Straight_1x04" H 7525 925 20  0000 C CNN
F 3 "" H 7525 1200 50  0000 C CNN
	1    7525 1200
	1    0    0    -1  
$EndComp
$Comp
L +3.3V #PWR9
U 1 1 5AE79C76
P 7125 950
F 0 "#PWR9" H 7125 800 50  0001 C CNN
F 1 "+3.3V" H 7125 1090 50  0000 C CNN
F 2 "" H 7125 950 50  0000 C CNN
F 3 "" H 7125 950 50  0000 C CNN
	1    7125 950 
	1    0    0    -1  
$EndComp
$Comp
L GND #PWR10
U 1 1 5AE79CCF
P 7125 1450
F 0 "#PWR10" H 7125 1200 50  0001 C CNN
F 1 "GND" H 7125 1300 50  0000 C CNN
F 2 "" H 7125 1450 50  0000 C CNN
F 3 "" H 7125 1450 50  0000 C CNN
	1    7125 1450
	1    0    0    -1  
$EndComp
Wire Wire Line
	7325 1350 7125 1350
Wire Wire Line
	7125 1350 7125 1450
Wire Wire Line
	7325 1050 7125 1050
Wire Wire Line
	7125 1050 7125 950 
Wire Wire Line
	7325 1150 7125 1150
Wire Wire Line
	7325 1250 7125 1250
Text Label 6250 3000 0    39   ~ 0
D+_pullup
Wire Wire Line
	6250 3000 5950 3000
Text Label 7650 6425 2    39   ~ 0
D+_pullup
$Comp
L R R10
U 1 1 5B57D1D2
P 8300 6425
F 0 "R10" V 8380 6425 50  0000 C CNN
F 1 "1K5" V 8300 6425 50  0000 C CNN
F 2 "Footprints:R_0603" V 8230 6425 50  0001 C CNN
F 3 "" H 8300 6425 50  0000 C CNN
	1    8300 6425
	0    1    1    0   
$EndComp
Connection ~ 8525 6175
Wire Wire Line
	7650 6425 8150 6425
Wire Wire Line
	8450 6425 8525 6425
Wire Wire Line
	8525 6425 8525 6175
Text Notes 8350 7325 0    60   ~ 0
rev 0.2 added pull-up 1K5 resistor over PA8\nrev 0.1 base version
$EndSCHEMATC
